{
    "final_orders": [
        {
            "carrier": {
                "id": "c32",
                "fixed_cost": 206.82,
                "cost_per_mile": 0.39054,
                "can_deliver": [
                    "o1",
                    "o2",
                    "o3",
                    "o4",
                    "o5",
                    "o6",
                    "o7",
                    "o8",
                    "o9",
                    "o10",
                    "o11",
                    "o12",
                    "o13",
                    "o14",
                    "o15",
                    "o16",
                    "o17",
                    "o18",
                    "o19",
                    "o20",
                    "o21",
                    "o22",
                    "o23",
                    "o24",
                    "o25",
                    "o26",
                    "o27",
                    "o28",
                    "o29",
                    "o30",
                    "o31",
                    "o32",
                    "o33",
                    "o34",
                    "o35",
                    "o36",
                    "o37",
                    "o38",
                    "o39",
                    "o40",
                    "o41",
                    "o42",
                    "o43",
                    "o44",
                    "o45",
                    "o46",
                    "o47",
                    "o48",
                    "o49",
                    "o50"
                ],
                "usage_min": 1,
                "usage_max": 2,
                "usage_target": null,
                "delivered": 2
            },
            "order": {
                "id": "o22",
                "distance": 983
            }
        },
        {
            "carrier": {
                "id": "c32",
                "fixed_cost": 206.82,
                "cost_per_mile": 0.39054,
                "can_deliver": [
                    "o1",
                    "o2",
                    "o3",
                    "o4",
                    "o5",
                    "o6",
                    "o7",
                    "o8",
                    "o9",
                    "o10",
                    "o11",
                    "o12",
                    "o13",
                    "o14",
                    "o15",
                    "o16",
                    "o17",
                    "o18",
                    "o19",
                    "o20",
                    "o21",
                    "o22",
                    "o23",
                    "o24",
                    "o25",
                    "o26",
                    "o27",
                    "o28",
                    "o29",
                    "o30",
                    "o31",
                    "o32",
                    "o33",
                    "o34",
                    "o35",
                    "o36",
                    "o37",
                    "o38",
                    "o39",
                    "o40",
                    "o41",
                    "o42",
                    "o43",
                    "o44",
                    "o45",
                    "o46",
                    "o47",
                    "o48",
                    "o49",
                    "o50"
                ],
                "usage_min": 1,
                "usage_max": 2,
                "usage_target": null,
                "delivered": 2
            },
            "order": {
                "id": "o41",
                "distance": 967
            }
        },
        {
            "carrier": {
                "id": "c17",
                "fixed_cost": 207.72,
                "cost_per_mile": 0.43620000000000003,
                "can_deliver": [
                    "o1",
                    "o2",
                    "o3",
                    "o4",
                    "o5",
                    "o6",
                    "o7",
                    "o8",
                    "o9",
                    "o10",
                    "o11",
                    "o12",
                    "o13",
                    "o14",
                    "o15",
                    "o16",
                    "o17",
                    "o18",
                    "o19",
                    "o20",
                    "o21",
                    "o22",
                    "o23",
                    "o24",
                    "o25",
                    "o26",
                    "o27",
                    "o28",
                    "o29",
                    "o30",
                    "o31",
                    "o32",
                    "o33",
                    "o34",
                    "o35",
                    "o36",
                    "o37",
                    "o38",
                    "o39",
                    "o40",
                    "o41",
                    "o42",
                    "o43",
                    "o44",
                    "o45",
                    "o46",
                    "o47",
                    "o48",
                    "o49",
                    "o50"
                ],
                "usage_min": 1,
                "usage_max": 2,
                "usage_target": null,
                "delivered": 2
            },
            "order": {
                "id": "o28",
                "distance": 954
            }
        },
        {
            "carrier": {
                "id": "c17",
                "fixed_cost": 207.72,
                "cost_per_mile": 0.43620000000000003,
                "can_deliver": [
                    "o1",
                    "o2",
                    "o3",
                    "o4",
                    "o5",
                    "o6",
                    "o7",
                    "o8",
                    "o9",
                    "o10",
                    "o11",
                    "o12",
                    "o13",
                    "o14",
                    "o15",
                    "o16",
                    "o17",
                    "o18",
                    "o19",
                    "o20",
                    "o21",
                    "o22",
                    "o23",
                    "o24",
                    "o25",
                    "o26",
                    "o27",
                    "o28",
                    "o29",
                    "o30",
                    "o31",
                    "o32",
                    "o33",
                    "o34",
                    "o35",
                    "o36",
                    "o37",
                    "o38",
                    "o39",
                    "o40",
                    "o41",
                    "o42",
                    "o43",
                    "o44",
                    "o45",
                    "o46",
                    "o47",
                    "o48",
                    "o49",
                    "o50"
                ],
                "usage_min": 1,
                "usage_max": 2,
                "usage_target": null,
                "delivered": 2
            },
            "order": {
                "id": "o45",
                "distance": 933
            }
        },
        {
            "carrier": {
                "id": "c6",
                "fixed_cost": 208.85,
                "cost_per_mile": 0.49732,
                "can_deliver": [
                    "o1",
                    "o2",
                    "o3",
                    "o4",
                    "o5",
                    "o6",
                    "o7",
                    "o8",
                    "o9",
                    "o10",
                    "o11",
                    "o12",
                    "o13",
                    "o14",
                    "o15",
                    "o16",
                    "o17",
                    "o18",
                    "o19",
                    "o20",
                    "o21",
                    "o22",
                    "o23",
                    "o24",
                    "o25",
                    "o26",
                    "o27",
                    "o28",
                    "o29",
                    "o30",
                    "o31",
                    "o32",
                    "o33",
                    "o34",
                    "o35",
                    "o36",
                    "o37",
                    "o38",
                    "o39",
                    "o40",
                    "o41",
                    "o42",
                    "o43",
                    "o44",
                    "o45",
                    "o46",
                    "o47",
                    "o48",
                    "o49",
                    "o50"
                ],
                "usage_min": 1,
                "usage_max": 2,
                "usage_target": null,
                "delivered": 2
            },
            "order": {
                "id": "o36",
                "distance": 921
            }
        },
        {
            "carrier": {
                "id": "c6",
                "fixed_cost": 208.85,
                "cost_per_mile": 0.49732,
                "can_deliver": [
                    "o1",
                    "o2",
                    "o3",
                    "o4",
                    "o5",
                    "o6",
                    "o7",
                    "o8",
                    "o9",
                    "o10",
                    "o11",
                    "o12",
                    "o13",
                    "o14",
                    "o15",
                    "o16",
                    "o17",
                    "o18",
                    "o19",
                    "o20",
                    "o21",
                    "o22",
                    "o23",
                    "o24",
                    "o25",
                    "o26",
                    "o27",
                    "o28",
                    "o29",
                    "o30",
                    "o31",
                    "o32",
                    "o33",
                    "o34",
                    "o35",
                    "o36",
                    "o37",
                    "o38",
                    "o39",
                    "o40",
                    "o41",
                    "o42",
                    "o43",
                    "o44",
                    "o45",
                    "o46",
                    "o47",
                    "o48",
                    "o49",
                    "o50"
                ],
                "usage_min": 1,
                "usage_max": 2,
                "usage_target": null,
                "delivered": 2
            },
            "order": {
                "id": "o4",
                "distance": 910
            }
        },
        {
            "carrier": {
                "id": "c35",
                "fixed_cost": 210.87,
                "cost_per_mile": 0.38961999999999997,
                "can_deliver": [
                    "o1",
                    "o2",
                    "o3",
                    "o4",
                    "o5",
                    "o6",
                    "o7",
                    "o8",
                    "o9",
                    "o10",
                    "o11",
                    "o12",
                    "o13",
                    "o14",
                    "o15",
                    "o16",
                    "o17",
                    "o18",
                    "o19",
                    "o20",
                    "o21",
                    "o22",
                    "o23",
                    "o24",
                    "o25",
                    "o26",
                    "o27",
                    "o28",
                    "o29",
                    "o30",
                    "o31",
                    "o32",
                    "o33",
                    "o34",
                    "o35",
                    "o36",
                    "o37",
                    "o38",
                    "o39",
                    "o40",
                    "o41",
                    "o42",
                    "o43",
                    "o44",
                    "o45",
                    "o46",
                    "o47",
                    "o48",
                    "o49",
                    "o50"
                ],
                "usage_min": 1,
                "usage_max": 2,
                "usage_target": null,
                "delivered": 2
            },
            "order": {
                "id": "o46",
                "distance": 877
            }
        },
        {
            "carrier": {
                "id": "c35",
                "fixed_cost": 210.87,
                "cost_per_mile": 0.38961999999999997,
                "can_deliver": [
                    "o1",
                    "o2",
                    "o3",
                    "o4",
                    "o5",
                    "o6",
                    "o7",
                    "o8",
                    "o9",
                    "o10",
                    "o11",
                    "o12",
                    "o13",
                    "o14",
                    "o15",
                    "o16",
                    "o17",
                    "o18",
                    "o19",
                    "o20",
                    "o21",
                    "o22",
                    "o23",
                    "o24",
                    "o25",
                    "o26",
                    "o27",
                    "o28",
                    "o29",
                    "o30",
                    "o31",
                    "o32",
                    "o33",
                    "o34",
                    "o35",
                    "o36",
                    "o37",
                    "o38",
                    "o39",
                    "o40",
                    "o41",
                    "o42",
                    "o43",
                    "o44",
                    "o45",
                    "o46",
                    "o47",
                    "o48",
                    "o49",
                    "o50"
                ],
                "usage_min": 1,
                "usage_max": 2,
                "usage_target": null,
                "delivered": 2
            },
            "order": {
                "id": "o25",
                "distance": 872
            }
        },
        {
            "carrier": {
                "id": "c9",
                "fixed_cost": 214.81,
                "cost_per_mile": 0.41916,
                "can_deliver": [
                    "o1",
                    "o2",
                    "o3",
                    "o4",
                    "o5",
                    "o6",
                    "o7",
                    "o8",
                    "o9",
                    "o10",
                    "o11",
                    "o12",
                    "o13",
                    "o14",
                    "o15",
                    "o16",
                    "o17",
                    "o18",
                    "o19",
                    "o20",
                    "o21",
                    "o22",
                    "o23",
                    "o24",
                    "o25",
                    "o26",
                    "o27",
                    "o28",
                    "o29",
                    "o30",
                    "o31",
                    "o32",
                    "o33",
                    "o34",
                    "o35",
                    "o36",
                    "o37",
                    "o38",
                    "o39",
                    "o40",
                    "o41",
                    "o42",
                    "o43",
                    "o44",
                    "o45",
                    "o46",
                    "o47",
                    "o48",
                    "o49",
                    "o50"
                ],
                "usage_min": 1,
                "usage_max": 2,
                "usage_target": null,
                "delivered": 2
            },
            "order": {
                "id": "o40",
                "distance": 822
            }
        },
        {
            "carrier": {
                "id": "c9",
                "fixed_cost": 214.81,
                "cost_per_mile": 0.41916,
                "can_deliver": [
                    "o1",
                    "o2",
                    "o3",
                    "o4",
                    "o5",
                    "o6",
                    "o7",
                    "o8",
                    "o9",
                    "o10",
                    "o11",
                    "o12",
                    "o13",
                    "o14",
                    "o15",
                    "o16",
                    "o17",
                    "o18",
                    "o19",
                    "o20",
                    "o21",
                    "o22",
                    "o23",
                    "o24",
                    "o25",
                    "o26",
                    "o27",
                    "o28",
                    "o29",
                    "o30",
                    "o31",
                    "o32",
                    "o33",
                    "o34",
                    "o35",
                    "o36",
                    "o37",
                    "o38",
                    "o39",
                    "o40",
                    "o41",
                    "o42",
                    "o43",
                    "o44",
                    "o45",
                    "o46",
                    "o47",
                    "o48",
                    "o49",
                    "o50"
                ],
                "usage_min": 1,
                "usage_max": 2,
                "usage_target": null,
                "delivered": 2
            },
            "order": {
                "id": "o39",
                "distance": 807
            }
        },
        {
            "carrier": {
                "id": "c18",
                "fixed_cost": 214.91,
                "cost_per_mile": 0.31378,
                "can_deliver": [
                    "o1",
                    "o2",
                    "o3",
                    "o4",
                    "o5",
                    "o6",
                    "o7",
                    "o8",
                    "o9",
                    "o10",
                    "o11",
                    "o12",
                    "o13",
                    "o14",
                    "o15",
                    "o16",
                    "o17",
                    "o18",
                    "o19",
                    "o20",
                    "o21",
                    "o22",
                    "o23",
                    "o24",
                    "o25",
                    "o26",
                    "o27",
                    "o28",
                    "o29",
                    "o30",
                    "o31",
                    "o32",
                    "o33",
                    "o34",
                    "o35",
                    "o36",
                    "o37",
                    "o38",
                    "o39",
                    "o40",
                    "o41",
                    "o42",
                    "o43",
                    "o44",
                    "o45",
                    "o46",
                    "o47",
                    "o48",
                    "o49",
                    "o50"
                ],
                "usage_min": 1,
                "usage_max": 2,
                "usage_target": null,
                "delivered": 2
            },
            "order": {
                "id": "o44",
                "distance": 798
            }
        },
        {
            "carrier": {
                "id": "c18",
                "fixed_cost": 214.91,
                "cost_per_mile": 0.31378,
                "can_deliver": [
                    "o1",
                    "o2",
                    "o3",
                    "o4",
                    "o5",
                    "o6",
                    "o7",
                    "o8",
                    "o9",
                    "o10",
                    "o11",
                    "o12",
                    "o13",
                    "o14",
                    "o15",
                    "o16",
                    "o17",
                    "o18",
                    "o19",
                    "o20",
                    "o21",
                    "o22",
                    "o23",
                    "o24",
                    "o25",
                    "o26",
                    "o27",
                    "o28",
                    "o29",
                    "o30",
                    "o31",
                    "o32",
                    "o33",
                    "o34",
                    "o35",
                    "o36",
                    "o37",
                    "o38",
                    "o39",
                    "o40",
                    "o41",
                    "o42",
                    "o43",
                    "o44",
                    "o45",
                    "o46",
                    "o47",
                    "o48",
                    "o49",
                    "o50"
                ],
                "usage_min": 1,
                "usage_max": 2,
                "usage_target": null,
                "delivered": 2
            },
            "order": {
                "id": "o11",
                "distance": 790
            }
        },
        {
            "carrier": {
                "id": "c14",
                "fixed_cost": 218.79,
                "cost_per_mile": 0.47386,
                "can_deliver": [
                    "o1",
                    "o2",
                    "o3",
                    "o4",
                    "o5",
                    "o6",
                    "o7",
                    "o8",
                    "o9",
                    "o10",
                    "o11",
                    "o12",
                    "o13",
                    "o14",
                    "o15",
                    "o16",
                    "o17",
                    "o18",
                    "o19",
                    "o20",
                    "o21",
                    "o22",
                    "o23",
                    "o24",
                    "o25",
                    "o26",
                    "o27",
                    "o28",
                    "o29",
                    "o30",
                    "o31",
                    "o32",
                    "o33",
                    "o34",
                    "o35",
                    "o36",
                    "o37",
                    "o38",
                    "o39",
                    "o40",
                    "o41",
                    "o42",
                    "o43",
                    "o44",
                    "o45",
                    "o46",
                    "o47",
                    "o48",
                    "o49",
                    "o50"
                ],
                "usage_min": 1,
                "usage_max": 2,
                "usage_target": null,
                "delivered": 2
            },
            "order": {
                "id": "o43",
                "distance": 727
            }
        },
        {
            "carrier": {
                "id": "c14",
                "fixed_cost": 218.79,
                "cost_per_mile": 0.47386,
                "can_deliver": [
                    "o1",
                    "o2",
                    "o3",
                    "o4",
                    "o5",
                    "o6",
                    "o7",
                    "o8",
                    "o9",
                    "o10",
                    "o11",
                    "o12",
                    "o13",
                    "o14",
                    "o15",
                    "o16",
                    "o17",
                    "o18",
                    "o19",
                    "o20",
                    "o21",
                    "o22",
                    "o23",
                    "o24",
                    "o25",
                    "o26",
                    "o27",
                    "o28",
                    "o29",
                    "o30",
                    "o31",
                    "o32",
                    "o33",
                    "o34",
                    "o35",
                    "o36",
                    "o37",
                    "o38",
                    "o39",
                    "o40",
                    "o41",
                    "o42",
                    "o43",
                    "o44",
                    "o45",
                    "o46",
                    "o47",
                    "o48",
                    "o49",
                    "o50"
                ],
                "usage_min": 1,
                "usage_max": 2,
                "usage_target": null,
                "delivered": 2
            },
            "order": {
                "id": "o47",
                "distance": 716
            }
        },
        {
            "carrier": {
                "id": "c22",
                "fixed_cost": 221.93,
                "cost_per_mile": 0.40534,
                "can_deliver": [
                    "o1",
                    "o2",
                    "o3",
                    "o4",
                    "o5",
                    "o6",
                    "o7",
                    "o8",
                    "o9",
                    "o10",
                    "o11",
                    "o12",
                    "o13",
                    "o14",
                    "o15",
                    "o16",
                    "o17",
                    "o18",
                    "o19",
                    "o20",
                    "o21",
                    "o22",
                    "o23",
                    "o24",
                    "o25",
                    "o26",
                    "o27",
                    "o28",
                    "o29",
                    "o30",
                    "o31",
                    "o32",
                    "o33",
                    "o34",
                    "o35",
                    "o36",
                    "o37",
                    "o38",
                    "o39",
                    "o40",
                    "o41",
                    "o42",
                    "o43",
                    "o44",
                    "o45",
                    "o46",
                    "o47",
                    "o48",
                    "o49",
                    "o50"
                ],
                "usage_min": 1,
                "usage_max": 2,
                "usage_target": null,
                "delivered": 2
            },
            "order": {
                "id": "o29",
                "distance": 707
            }
        },
        {
            "carrier": {
                "id": "c22",
                "fixed_cost": 221.93,
                "cost_per_mile": 0.40534,
                "can_deliver": [
                    "o1",
                    "o2",
                    "o3",
                    "o4",
                    "o5",
                    "o6",
                    "o7",
                    "o8",
                    "o9",
                    "o10",
                    "o11",
                    "o12",
                    "o13",
                    "o14",
                    "o15",
                    "o16",
                    "o17",
                    "o18",
                    "o19",
                    "o20",
                    "o21",
                    "o22",
                    "o23",
                    "o24",
                    "o25",
                    "o26",
                    "o27",
                    "o28",
                    "o29",
                    "o30",
                    "o31",
                    "o32",
                    "o33",
                    "o34",
                    "o35",
                    "o36",
                    "o37",
                    "o38",
                    "o39",
                    "o40",
                    "o41",
                    "o42",
                    "o43",
                    "o44",
                    "o45",
                    "o46",
                    "o47",
                    "o48",
                    "o49",
                    "o50"
                ],
                "usage_min": 1,
                "usage_max": 2,
                "usage_target": null,
                "delivered": 2
            },
            "order": {
                "id": "o48",
                "distance": 697
            }
        },
        {
            "carrier": {
                "id": "c4",
                "fixed_cost": 224.9,
                "cost_per_mile": 0.34471999999999997,
                "can_deliver": [
                    "o1",
                    "o2",
                    "o3",
                    "o4",
                    "o5",
                    "o6",
                    "o7",
                    "o8",
                    "o9",
                    "o10",
                    "o11",
                    "o12",
                    "o13",
                    "o14",
                    "o15",
                    "o16",
                    "o17",
                    "o18",
                    "o19",
                    "o20",
                    "o21",
                    "o22",
                    "o23",
                    "o24",
                    "o25",
                    "o26",
                    "o27",
                    "o28",
                    "o29",
                    "o30",
                    "o31",
                    "o32",
                    "o33",
                    "o34",
                    "o35",
                    "o36",
                    "o37",
                    "o38",
                    "o39",
                    "o40",
                    "o41",
                    "o42",
                    "o43",
                    "o44",
                    "o45",
                    "o46",
                    "o47",
                    "o48",
                    "o49",
                    "o50"
                ],
                "usage_min": 1,
                "usage_max": 2,
                "usage_target": null,
                "delivered": 2
            },
            "order": {
                "id": "o24",
                "distance": 688
            }
        },
        {
            "carrier": {
                "id": "c4",
                "fixed_cost": 224.9,
                "cost_per_mile": 0.34471999999999997,
                "can_deliver": [
                    "o1",
                    "o2",
                    "o3",
                    "o4",
                    "o5",
                    "o6",
                    "o7",
                    "o8",
                    "o9",
                    "o10",
                    "o11",
                    "o12",
                    "o13",
                    "o14",
                    "o15",
                    "o16",
                    "o17",
                    "o18",
                    "o19",
                    "o20",
                    "o21",
                    "o22",
                    "o23",
                    "o24",
                    "o25",
                    "o26",
                    "o27",
                    "o28",
                    "o29",
                    "o30",
                    "o31",
                    "o32",
                    "o33",
                    "o34",
                    "o35",
                    "o36",
                    "o37",
                    "o38",
                    "o39",
                    "o40",
                    "o41",
                    "o42",
                    "o43",
                    "o44",
                    "o45",
                    "o46",
                    "o47",
                    "o48",
                    "o49",
                    "o50"
                ],
                "usage_min": 1,
                "usage_max": 2,
                "usage_target": null,
                "delivered": 2
            },
            "order": {
                "id": "o12",
                "distance": 655
            }
        },
        {
            "carrier": {
                "id": "c11",
                "fixed_cost": 227.41,
                "cost_per_mile": 0.46868,
                "can_deliver": [
                    "o1",
                    "o2",
                    "o3",
                    "o4",
                    "o5",
                    "o6",
                    "o7",
                    "o8",
                    "o9",
                    "o10",
                    "o11",
                    "o12",
                    "o13",
                    "o14",
                    "o15",
                    "o16",
                    "o17",
                    "o18",
                    "o19",
                    "o20",
                    "o21",
                    "o22",
                    "o23",
                    "o24",
                    "o25",
                    "o26",
                    "o27",
                    "o28",
                    "o29",
                    "o30",
                    "o31",
                    "o32",
                    "o33",
                    "o34",
                    "o35",
                    "o36",
                    "o37",
                    "o38",
                    "o39",
                    "o40",
                    "o41",
                    "o42",
                    "o43",
                    "o44",
                    "o45",
                    "o46",
                    "o47",
                    "o48",
                    "o49",
                    "o50"
                ],
                "usage_min": 1,
                "usage_max": 2,
                "usage_target": null,
                "delivered": 2
            },
            "order": {
                "id": "o30",
                "distance": 625
            }
        },
        {
            "carrier": {
                "id": "c11",
                "fixed_cost": 227.41,
                "cost_per_mile": 0.46868,
                "can_deliver": [
                    "o1",
                    "o2",
                    "o3",
                    "o4",
                    "o5",
                    "o6",
                    "o7",
                    "o8",
                    "o9",
                    "o10",
                    "o11",
                    "o12",
                    "o13",
                    "o14",
                    "o15",
                    "o16",
                    "o17",
                    "o18",
                    "o19",
                    "o20",
                    "o21",
                    "o22",
                    "o23",
                    "o24",
                    "o25",
                    "o26",
                    "o27",
                    "o28",
                    "o29",
                    "o30",
                    "o31",
                    "o32",
                    "o33",
                    "o34",
                    "o35",
                    "o36",
                    "o37",
                    "o38",
                    "o39",
                    "o40",
                    "o41",
                    "o42",
                    "o43",
                    "o44",
                    "o45",
                    "o46",
                    "o47",
                    "o48",
                    "o49",
                    "o50"
                ],
                "usage_min": 1,
                "usage_max": 2,
                "usage_target": null,
                "delivered": 2
            },
            "order": {
                "id": "o16",
                "distance": 615
            }
        },
        {
            "carrier": {
                "id": "c13",
                "fixed_cost": 227.46,
                "cost_per_mile": 0.30419999999999997,
                "can_deliver": [
                    "o1",
                    "o2",
                    "o3",
                    "o4",
                    "o5",
                    "o6",
                    "o7",
                    "o8",
                    "o9",
                    "o10",
                    "o11",
                    "o12",
                    "o13",
                    "o14",
                    "o15",
                    "o16",
                    "o17",
                    "o18",
                    "o19",
                    "o20",
                    "o21",
                    "o22",
                    "o23",
                    "o24",
                    "o25",
                    "o26",
                    "o27",
                    "o28",
                    "o29",
                    "o30",
                    "o31",
                    "o32",
                    "o33",
                    "o34",
                    "o35",
                    "o36",
                    "o37",
                    "o38",
                    "o39",
                    "o40",
                    "o41",
                    "o42",
                    "o43",
                    "o44",
                    "o45",
                    "o46",
                    "o47",
                    "o48",
                    "o49",
                    "o50"
                ],
                "usage_min": 1,
                "usage_max": 2,
                "usage_target": null,
                "delivered": 2
            },
            "order": {
                "id": "o14",
                "distance": 595
            }
        },
        {
            "carrier": {
                "id": "c13",
                "fixed_cost": 227.46,
                "cost_per_mile": 0.30419999999999997,
                "can_deliver": [
                    "o1",
                    "o2",
                    "o3",
                    "o4",
                    "o5",
                    "o6",
                    "o7",
                    "o8",
                    "o9",
                    "o10",
                    "o11",
                    "o12",
                    "o13",
                    "o14",
                    "o15",
                    "o16",
                    "o17",
                    "o18",
                    "o19",
                    "o20",
                    "o21",
                    "o22",
                    "o23",
                    "o24",
                    "o25",
                    "o26",
                    "o27",
                    "o28",
                    "o29",
                    "o30",
                    "o31",
                    "o32",
                    "o33",
                    "o34",
                    "o35",
                    "o36",
                    "o37",
                    "o38",
                    "o39",
                    "o40",
                    "o41",
                    "o42",
                    "o43",
                    "o44",
                    "o45",
                    "o46",
                    "o47",
                    "o48",
                    "o49",
                    "o50"
                ],
                "usage_min": 1,
                "usage_max": 2,
                "usage_target": null,
                "delivered": 2
            },
            "order": {
                "id": "o27",
                "distance": 540
            }
        },
        {
            "carrier": {
                "id": "c16",
                "fixed_cost": 231.58,
                "cost_per_mile": 0.48434,
                "can_deliver": [
                    "o1",
                    "o2",
                    "o3",
                    "o4",
                    "o5",
                    "o6",
                    "o7",
                    "o8",
                    "o9",
                    "o10",
                    "o11",
                    "o12",
                    "o13",
                    "o14",
                    "o15",
                    "o16",
                    "o17",
                    "o18",
                    "o19",
                    "o20",
                    "o21",
                    "o22",
                    "o23",
                    "o24",
                    "o25",
                    "o26",
                    "o27",
                    "o28",
                    "o29",
                    "o30",
                    "o31",
                    "o32",
                    "o33",
                    "o34",
                    "o35",
                    "o36",
                    "o37",
                    "o38",
                    "o39",
                    "o40",
                    "o41",
                    "o42",
                    "o43",
                    "o44",
                    "o45",
                    "o46",
                    "o47",
                    "o48",
                    "o49",
                    "o50"
                ],
                "usage_min": 1,
                "usage_max": 2,
                "usage_target": null,
                "delivered": 2
            },
            "order": {
                "id": "o18",
                "distance": 510
            }
        },
        {
            "carrier": {
                "id": "c16",
                "fixed_cost": 231.58,
                "cost_per_mile": 0.48434,
                "can_deliver": [
                    "o1",
                    "o2",
                    "o3",
                    "o4",
                    "o5",
                    "o6",
                    "o7",
                    "o8",
                    "o9",
                    "o10",
                    "o11",
                    "o12",
                    "o13",
                    "o14",
                    "o15",
                    "o16",
                    "o17",
                    "o18",
                    "o19",
                    "o20",
                    "o21",
                    "o22",
                    "o23",
                    "o24",
                    "o25",
                    "o26",
                    "o27",
                    "o28",
                    "o29",
                    "o30",
                    "o31",
                    "o32",
                    "o33",
                    "o34",
                    "o35",
                    "o36",
                    "o37",
                    "o38",
                    "o39",
                    "o40",
                    "o41",
                    "o42",
                    "o43",
                    "o44",
                    "o45",
                    "o46",
                    "o47",
                    "o48",
                    "o49",
                    "o50"
                ],
                "usage_min": 1,
                "usage_max": 2,
                "usage_target": null,
                "delivered": 2
            },
            "order": {
                "id": "o17",
                "distance": 474
            }
        },
        {
            "carrier": {
                "id": "c7",
                "fixed_cost": 235.44,
                "cost_per_mile": 0.38339999999999996,
                "can_deliver": [
                    "o1",
                    "o2",
                    "o3",
                    "o4",
                    "o5",
                    "o6",
                    "o7",
                    "o8",
                    "o9",
                    "o10",
                    "o11",
                    "o12",
                    "o13",
                    "o14",
                    "o15",
                    "o16",
                    "o17",
                    "o18",
                    "o19",
                    "o20",
                    "o21",
                    "o22",
                    "o23",
                    "o24",
                    "o25",
                    "o26",
                    "o27",
                    "o28",
                    "o29",
                    "o30",
                    "o31",
                    "o32",
                    "o33",
                    "o34",
                    "o35",
                    "o36",
                    "o37",
                    "o38",
                    "o39",
                    "o40",
                    "o41",
                    "o42",
                    "o43",
                    "o44",
                    "o45",
                    "o46",
                    "o47",
                    "o48",
                    "o49",
                    "o50"
                ],
                "usage_min": 1,
                "usage_max": 2,
                "usage_target": null,
                "delivered": 2
            },
            "order": {
                "id": "o2",
                "distance": 457
            }
        },
        {
            "carrier": {
                "id": "c7",
                "fixed_cost": 235.44,
                "cost_per_mile": 0.38339999999999996,
                "can_deliver": [
                    "o1",
                    "o2",
                    "o3",
                    "o4",
                    "o5",
                    "o6",
                    "o7",
                    "o8",
                    "o9",
                    "o10",
                    "o11",
                    "o12",
                    "o13",
                    "o14",
                    "o15",
                    "o16",
                    "o17",
                    "o18",
                    "o19",
                    "o20",
                    "o21",
                    "o22",
                    "o23",
                    "o24",
                    "o25",
                    "o26",
                    "o27",
                    "o28",
                    "o29",
                    "o30",
                    "o31",
                    "o32",
                    "o33",
                    "o34",
                    "o35",
                    "o36",
                    "o37",
                    "o38",
                    "o39",
                    "o40",
                    "o41",
                    "o42",
                    "o43",
                    "o44",
                    "o45",
                    "o46",
                    "o47",
                    "o48",
                    "o49",
                    "o50"
                ],
                "usage_min": 1,
                "usage_max": 2,
                "usage_target": null,
                "delivered": 2
            },
            "order": {
                "id": "o19",
                "distance": 394
            }
        },
        {
            "carrier": {
                "id": "c1",
                "fixed_cost": 241.89,
                "cost_per_mile": 0.47032,
                "can_deliver": [
                    "o1",
                    "o2",
                    "o3",
                    "o4",
                    "o5",
                    "o6",
                    "o7",
                    "o8",
                    "o9",
                    "o10",
                    "o11",
                    "o12",
                    "o13",
                    "o14",
                    "o15",
                    "o16",
                    "o17",
                    "o18",
                    "o19",
                    "o20",
                    "o21",
                    "o22",
                    "o23",
                    "o24",
                    "o25",
                    "o26",
                    "o27",
                    "o28",
                    "o29",
                    "o30",
                    "o31",
                    "o32",
                    "o33",
                    "o34",
                    "o35",
                    "o36",
                    "o37",
                    "o38",
                    "o39",
                    "o40",
                    "o41",
                    "o42",
                    "o43",
                    "o44",
                    "o45",
                    "o46",
                    "o47",
                    "o48",
                    "o49",
                    "o50"
                ],
                "usage_min": 1,
                "usage_max": 2,
                "usage_target": null,
                "delivered": 2
            },
            "order": {
                "id": "o34",
                "distance": 386
            }
        },
        {
            "carrier": {
                "id": "c1",
                "fixed_cost": 241.89,
                "cost_per_mile": 0.47032,
                "can_deliver": [
                    "o1",
                    "o2",
                    "o3",
                    "o4",
                    "o5",
                    "o6",
                    "o7",
                    "o8",
                    "o9",
                    "o10",
                    "o11",
                    "o12",
                    "o13",
                    "o14",
                    "o15",
                    "o16",
                    "o17",
                    "o18",
                    "o19",
                    "o20",
                    "o21",
                    "o22",
                    "o23",
                    "o24",
                    "o25",
                    "o26",
                    "o27",
                    "o28",
                    "o29",
                    "o30",
                    "o31",
                    "o32",
                    "o33",
                    "o34",
                    "o35",
                    "o36",
                    "o37",
                    "o38",
                    "o39",
                    "o40",
                    "o41",
                    "o42",
                    "o43",
                    "o44",
                    "o45",
                    "o46",
                    "o47",
                    "o48",
                    "o49",
                    "o50"
                ],
                "usage_min": 1,
                "usage_max": 2,
                "usage_target": null,
                "delivered": 2
            },
            "order": {
                "id": "o42",
                "distance": 365
            }
        },
        {
            "carrier": {
                "id": "c30",
                "fixed_cost": 244.17000000000002,
                "cost_per_mile": 0.38508,
                "can_deliver": [
                    "o1",
                    "o2",
                    "o3",
                    "o4",
                    "o5",
                    "o6",
                    "o7",
                    "o8",
                    "o9",
                    "o10",
                    "o11",
                    "o12",
                    "o13",
                    "o14",
                    "o15",
                    "o16",
                    "o17",
                    "o18",
                    "o19",
                    "o20",
                    "o21",
                    "o22",
                    "o23",
                    "o24",
                    "o25",
                    "o26",
                    "o27",
                    "o28",
                    "o29",
                    "o30",
                    "o31",
                    "o32",
                    "o33",
                    "o34",
                    "o35",
                    "o36",
                    "o37",
                    "o38",
                    "o39",
                    "o40",
                    "o41",
                    "o42",
                    "o43",
                    "o44",
                    "o45",
                    "o46",
                    "o47",
                    "o48",
                    "o49",
                    "o50"
                ],
                "usage_min": 1,
                "usage_max": 2,
                "usage_target": null,
                "delivered": 2
            },
            "order": {
                "id": "o32",
                "distance": 341
            }
        },
        {
            "carrier": {
                "id": "c30",
                "fixed_cost": 244.17000000000002,
                "cost_per_mile": 0.38508,
                "can_deliver": [
                    "o1",
                    "o2",
                    "o3",
                    "o4",
                    "o5",
                    "o6",
                    "o7",
                    "o8",
                    "o9",
                    "o10",
                    "o11",
                    "o12",
                    "o13",
                    "o14",
                    "o15",
                    "o16",
                    "o17",
                    "o18",
                    "o19",
                    "o20",
                    "o21",
                    "o22",
                    "o23",
                    "o24",
                    "o25",
                    "o26",
                    "o27",
                    "o28",
                    "o29",
                    "o30",
                    "o31",
                    "o32",
                    "o33",
                    "o34",
                    "o35",
                    "o36",
                    "o37",
                    "o38",
                    "o39",
                    "o40",
                    "o41",
                    "o42",
                    "o43",
                    "o44",
                    "o45",
                    "o46",
                    "o47",
                    "o48",
                    "o49",
                    "o50"
                ],
                "usage_min": 1,
                "usage_max": 2,
                "usage_target": null,
                "delivered": 2
            },
            "order": {
                "id": "o31",
                "distance": 337
            }
        },
        {
            "carrier": {
                "id": "c19",
                "fixed_cost": 248.49,
                "cost_per_mile": 0.4938,
                "can_deliver": [
                    "o1",
                    "o2",
                    "o3",
                    "o4",
                    "o5",
                    "o6",
                    "o7",
                    "o8",
                    "o9",
                    "o10",
                    "o11",
                    "o12",
                    "o13",
                    "o14",
                    "o15",
                    "o16",
                    "o17",
                    "o18",
                    "o19",
                    "o20",
                    "o21",
                    "o22",
                    "o23",
                    "o24",
                    "o25",
                    "o26",
                    "o27",
                    "o28",
                    "o29",
                    "o30",
                    "o31",
                    "o32",
                    "o33",
                    "o34",
                    "o35",
                    "o36",
                    "o37",
                    "o38",
                    "o39",
                    "o40",
                    "o41",
                    "o42",
                    "o43",
                    "o44",
                    "o45",
                    "o46",
                    "o47",
                    "o48",
                    "o49",
                    "o50"
                ],
                "usage_min": 1,
                "usage_max": 2,
                "usage_target": null,
                "delivered": 2
            },
            "order": {
                "id": "o6",
                "distance": 321
            }
        },
        {
            "carrier": {
                "id": "c19",
                "fixed_cost": 248.49,
                "cost_per_mile": 0.4938,
                "can_deliver": [
                    "o1",
                    "o2",
                    "o3",
                    "o4",
                    "o5",
                    "o6",
                    "o7",
                    "o8",
                    "o9",
                    "o10",
                    "o11",
                    "o12",
                    "o13",
                    "o14",
                    "o15",
                    "o16",
                    "o17",
                    "o18",
                    "o19",
                    "o20",
                    "o21",
                    "o22",
                    "o23",
                    "o24",
                    "o25",
                    "o26",
                    "o27",
                    "o28",
                    "o29",
                    "o30",
                    "o31",
                    "o32",
                    "o33",
                    "o34",
                    "o35",
                    "o36",
                    "o37",
                    "o38",
                    "o39",
                    "o40",
                    "o41",
                    "o42",
                    "o43",
                    "o44",
                    "o45",
                    "o46",
                    "o47",
                    "o48",
                    "o49",
                    "o50"
                ],
                "usage_min": 1,
                "usage_max": 2,
                "usage_target": null,
                "delivered": 2
            },
            "order": {
                "id": "o7",
                "distance": 313
            }
        },
        {
            "carrier": {
                "id": "c24",
                "fixed_cost": 253.19,
                "cost_per_mile": 0.44476,
                "can_deliver": [
                    "o1",
                    "o2",
                    "o3",
                    "o4",
                    "o5",
                    "o6",
                    "o7",
                    "o8",
                    "o9",
                    "o10",
                    "o11",
                    "o12",
                    "o13",
                    "o14",
                    "o15",
                    "o16",
                    "o17",
                    "o18",
                    "o19",
                    "o20",
                    "o21",
                    "o22",
                    "o23",
                    "o24",
                    "o25",
                    "o26",
                    "o27",
                    "o28",
                    "o29",
                    "o30",
                    "o31",
                    "o32",
                    "o33",
                    "o34",
                    "o35",
                    "o36",
                    "o37",
                    "o38",
                    "o39",
                    "o40",
                    "o41",
                    "o42",
                    "o43",
                    "o44",
                    "o45",
                    "o46",
                    "o47",
                    "o48",
                    "o49",
                    "o50"
                ],
                "usage_min": 1,
                "usage_max": 2,
                "usage_target": null,
                "delivered": 2
            },
            "order": {
                "id": "o35",
                "distance": 309
            }
        },
        {
            "carrier": {
                "id": "c24",
                "fixed_cost": 253.19,
                "cost_per_mile": 0.44476,
                "can_deliver": [
                    "o1",
                    "o2",
                    "o3",
                    "o4",
                    "o5",
                    "o6",
                    "o7",
                    "o8",
                    "o9",
                    "o10",
                    "o11",
                    "o12",
                    "o13",
                    "o14",
                    "o15",
                    "o16",
                    "o17",
                    "o18",
                    "o19",
                    "o20",
                    "o21",
                    "o22",
                    "o23",
                    "o24",
                    "o25",
                    "o26",
                    "o27",
                    "o28",
                    "o29",
                    "o30",
                    "o31",
                    "o32",
                    "o33",
                    "o34",
                    "o35",
                    "o36",
                    "o37",
                    "o38",
                    "o39",
                    "o40",
                    "o41",
                    "o42",
                    "o43",
                    "o44",
                    "o45",
                    "o46",
                    "o47",
                    "o48",
                    "o49",
                    "o50"
                ],
                "usage_min": 1,
                "usage_max": 2,
                "usage_target": null,
                "delivered": 2
            },
            "order": {
                "id": "o50",
                "distance": 308
            }
        },
        {
            "carrier": {
                "id": "c3",
                "fixed_cost": 253.74,
                "cost_per_mile": 0.42756,
                "can_deliver": [
                    "o1",
                    "o2",
                    "o3",
                    "o4",
                    "o5",
                    "o6",
                    "o7",
                    "o8",
                    "o9",
                    "o10",
                    "o11",
                    "o12",
                    "o13",
                    "o14",
                    "o15",
                    "o16",
                    "o17",
                    "o18",
                    "o19",
                    "o20",
                    "o21",
                    "o22",
                    "o23",
                    "o24",
                    "o25",
                    "o26",
                    "o27",
                    "o28",
                    "o29",
                    "o30",
                    "o31",
                    "o32",
                    "o33",
                    "o34",
                    "o35",
                    "o36",
                    "o37",
                    "o38",
                    "o39",
                    "o40",
                    "o41",
                    "o42",
                    "o43",
                    "o44",
                    "o45",
                    "o46",
                    "o47",
                    "o48",
                    "o49",
                    "o50"
                ],
                "usage_min": 1,
                "usage_max": 2,
                "usage_target": null,
                "delivered": 2
            },
            "order": {
                "id": "o8",
                "distance": 305
            }
        },
        {
            "carrier": {
                "id": "c3",
                "fixed_cost": 253.74,
                "cost_per_mile": 0.42756,
                "can_deliver": [
                    "o1",
                    "o2",
                    "o3",
                    "o4",
                    "o5",
                    "o6",
                    "o7",
                    "o8",
                    "o9",
                    "o10",
                    "o11",
                    "o12",
                    "o13",
                    "o14",
                    "o15",
                    "o16",
                    "o17",
                    "o18",
                    "o19",
                    "o20",
                    "o21",
                    "o22",
                    "o23",
                    "o24",
                    "o25",
                    "o26",
                    "o27",
                    "o28",
                    "o29",
                    "o30",
                    "o31",
                    "o32",
                    "o33",
                    "o34",
                    "o35",
                    "o36",
                    "o37",
                    "o38",
                    "o39",
                    "o40",
                    "o41",
                    "o42",
                    "o43",
                    "o44",
                    "o45",
                    "o46",
                    "o47",
                    "o48",
                    "o49",
                    "o50"
                ],
                "usage_min": 1,
                "usage_max": 2,
                "usage_target": null,
                "delivered": 2
            },
            "order": {
                "id": "o33",
                "distance": 258
            }
        },
        {
            "carrier": {
                "id": "c12",
                "fixed_cost": 255.4,
                "cost_per_mile": 0.32608,
                "can_deliver": [
                    "o1",
                    "o2",
                    "o3",
                    "o4",
                    "o5",
                    "o6",
                    "o7",
                    "o8",
                    "o9",
                    "o10",
                    "o11",
                    "o12",
                    "o13",
                    "o14",
                    "o15",
                    "o16",
                    "o17",
                    "o18",
                    "o19",
                    "o20",
                    "o21",
                    "o22",
                    "o23",
                    "o24",
                    "o25",
                    "o26",
                    "o27",
                    "o28",
                    "o29",
                    "o30",
                    "o31",
                    "o32",
                    "o33",
                    "o34",
                    "o35",
                    "o36",
                    "o37",
                    "o38",
                    "o39",
                    "o40",
                    "o41",
                    "o42",
                    "o43",
                    "o44",
                    "o45",
                    "o46",
                    "o47",
                    "o48",
                    "o49",
                    "o50"
                ],
                "usage_min": 1,
                "usage_max": 2,
                "usage_target": null,
                "delivered": 2
            },
            "order": {
                "id": "o9",
                "distance": 236
            }
        },
        {
            "carrier": {
                "id": "c12",
                "fixed_cost": 255.4,
                "cost_per_mile": 0.32608,
                "can_deliver": [
                    "o1",
                    "o2",
                    "o3",
                    "o4",
                    "o5",
                    "o6",
                    "o7",
                    "o8",
                    "o9",
                    "o10",
                    "o11",
                    "o12",
                    "o13",
                    "o14",
                    "o15",
                    "o16",
                    "o17",
                    "o18",
                    "o19",
                    "o20",
                    "o21",
                    "o22",
                    "o23",
                    "o24",
                    "o25",
                    "o26",
                    "o27",
                    "o28",
                    "o29",
                    "o30",
                    "o31",
                    "o32",
                    "o33",
                    "o34",
                    "o35",
                    "o36",
                    "o37",
                    "o38",
                    "o39",
                    "o40",
                    "o41",
                    "o42",
                    "o43",
                    "o44",
                    "o45",
                    "o46",
                    "o47",
                    "o48",
                    "o49",
                    "o50"
                ],
                "usage_min": 1,
                "usage_max": 2,
                "usage_target": null,
                "delivered": 2
            },
            "order": {
                "id": "o1",
                "distance": 218
            }
        },
        {
            "carrier": {
                "id": "c10",
                "fixed_cost": 255.44,
                "cost_per_mile": 0.36019999999999996,
                "can_deliver": [
                    "o1",
                    "o2",
                    "o3",
                    "o4",
                    "o5",
                    "o6",
                    "o7",
                    "o8",
                    "o9",
                    "o10",
                    "o11",
                    "o12",
                    "o13",
                    "o14",
                    "o15",
                    "o16",
                    "o17",
                    "o18",
                    "o19",
                    "o20",
                    "o21",
                    "o22",
                    "o23",
                    "o24",
                    "o25",
                    "o26",
                    "o27",
                    "o28",
                    "o29",
                    "o30",
                    "o31",
                    "o32",
                    "o33",
                    "o34",
                    "o35",
                    "o36",
                    "o37",
                    "o38",
                    "o39",
                    "o40",
                    "o41",
                    "o42",
                    "o43",
                    "o44",
                    "o45",
                    "o46",
                    "o47",
                    "o48",
                    "o49",
                    "o50"
                ],
                "usage_min": 1,
                "usage_max": 2,
                "usage_target": null,
                "delivered": 2
            },
            "order": {
                "id": "o49",
                "distance": 215
            }
        },
        {
            "carrier": {
                "id": "c10",
                "fixed_cost": 255.44,
                "cost_per_mile": 0.36019999999999996,
                "can_deliver": [
                    "o1",
                    "o2",
                    "o3",
                    "o4",
                    "o5",
                    "o6",
                    "o7",
                    "o8",
                    "o9",
                    "o10",
                    "o11",
                    "o12",
                    "o13",
                    "o14",
                    "o15",
                    "o16",
                    "o17",
                    "o18",
                    "o19",
                    "o20",
                    "o21",
                    "o22",
                    "o23",
                    "o24",
                    "o25",
                    "o26",
                    "o27",
                    "o28",
                    "o29",
                    "o30",
                    "o31",
                    "o32",
                    "o33",
                    "o34",
                    "o35",
                    "o36",
                    "o37",
                    "o38",
                    "o39",
                    "o40",
                    "o41",
                    "o42",
                    "o43",
                    "o44",
                    "o45",
                    "o46",
                    "o47",
                    "o48",
                    "o49",
                    "o50"
                ],
                "usage_min": 1,
                "usage_max": 2,
                "usage_target": null,
                "delivered": 2
            },
            "order": {
                "id": "o23",
                "distance": 213
            }
        },
        {
            "carrier": {
                "id": "c31",
                "fixed_cost": 257.06,
                "cost_per_mile": 0.37538,
                "can_deliver": [
                    "o1",
                    "o2",
                    "o3",
                    "o4",
                    "o5",
                    "o6",
                    "o7",
                    "o8",
                    "o9",
                    "o10",
                    "o11",
                    "o12",
                    "o13",
                    "o14",
                    "o15",
                    "o16",
                    "o17",
                    "o18",
                    "o19",
                    "o20",
                    "o21",
                    "o22",
                    "o23",
                    "o24",
                    "o25",
                    "o26",
                    "o27",
                    "o28",
                    "o29",
                    "o30",
                    "o31",
                    "o32",
                    "o33",
                    "o34",
                    "o35",
                    "o36",
                    "o37",
                    "o38",
                    "o39",
                    "o40",
                    "o41",
                    "o42",
                    "o43",
                    "o44",
                    "o45",
                    "o46",
                    "o47",
                    "o48",
                    "o49",
                    "o50"
                ],
                "usage_min": 1,
                "usage_max": 2,
                "usage_target": null,
                "delivered": 2
            },
            "order": {
                "id": "o26",
                "distance": 213
            }
        },
        {
            "carrier": {
                "id": "c31",
                "fixed_cost": 257.06,
                "cost_per_mile": 0.37538,
                "can_deliver": [
                    "o1",
                    "o2",
                    "o3",
                    "o4",
                    "o5",
                    "o6",
                    "o7",
                    "o8",
                    "o9",
                    "o10",
                    "o11",
                    "o12",
                    "o13",
                    "o14",
                    "o15",
                    "o16",
                    "o17",
                    "o18",
                    "o19",
                    "o20",
                    "o21",
                    "o22",
                    "o23",
                    "o24",
                    "o25",
                    "o26",
                    "o27",
                    "o28",
                    "o29",
                    "o30",
                    "o31",
                    "o32",
                    "o33",
                    "o34",
                    "o35",
                    "o36",
                    "o37",
                    "o38",
                    "o39",
                    "o40",
                    "o41",
                    "o42",
                    "o43",
                    "o44",
                    "o45",
                    "o46",
                    "o47",
                    "o48",
                    "o49",
                    "o50"
                ],
                "usage_min": 1,
                "usage_max": 2,
                "usage_target": null,
                "delivered": 2
            },
            "order": {
                "id": "o5",
                "distance": 199
            }
        },
        {
            "carrier": {
                "id": "c5",
                "fixed_cost": 259.01,
                "cost_per_mile": 0.436,
                "can_deliver": [
                    "o1",
                    "o2",
                    "o3",
                    "o4",
                    "o5",
                    "o6",
                    "o7",
                    "o8",
                    "o9",
                    "o10",
                    "o11",
                    "o12",
                    "o13",
                    "o14",
                    "o15",
                    "o16",
                    "o17",
                    "o18",
                    "o19",
                    "o20",
                    "o21",
                    "o22",
                    "o23",
                    "o24",
                    "o25",
                    "o26",
                    "o27",
                    "o28",
                    "o29",
                    "o30",
                    "o31",
                    "o32",
                    "o33",
                    "o34",
                    "o35",
                    "o36",
                    "o37",
                    "o38",
                    "o39",
                    "o40",
                    "o41",
                    "o42",
                    "o43",
                    "o44",
                    "o45",
                    "o46",
                    "o47",
                    "o48",
                    "o49",
                    "o50"
                ],
                "usage_min": 1,
                "usage_max": 2,
                "usage_target": null,
                "delivered": 2
            },
            "order": {
                "id": "o13",
                "distance": 192
            }
        },
        {
            "carrier": {
                "id": "c5",
                "fixed_cost": 259.01,
                "cost_per_mile": 0.436,
                "can_deliver": [
                    "o1",
                    "o2",
                    "o3",
                    "o4",
                    "o5",
                    "o6",
                    "o7",
                    "o8",
                    "o9",
                    "o10",
                    "o11",
                    "o12",
                    "o13",
                    "o14",
                    "o15",
                    "o16",
                    "o17",
                    "o18",
                    "o19",
                    "o20",
                    "o21",
                    "o22",
                    "o23",
                    "o24",
                    "o25",
                    "o26",
                    "o27",
                    "o28",
                    "o29",
                    "o30",
                    "o31",
                    "o32",
                    "o33",
                    "o34",
                    "o35",
                    "o36",
                    "o37",
                    "o38",
                    "o39",
                    "o40",
                    "o41",
                    "o42",
                    "o43",
                    "o44",
                    "o45",
                    "o46",
                    "o47",
                    "o48",
                    "o49",
                    "o50"
                ],
                "usage_min": 1,
                "usage_max": 2,
                "usage_target": null,
                "delivered": 2
            },
            "order": {
                "id": "o20",
                "distance": 174
            }
        },
        {
            "carrier": {
                "id": "c26",
                "fixed_cost": 259.05,
                "cost_per_mile": 0.45646,
                "can_deliver": [
                    "o1",
                    "o2",
                    "o3",
                    "o4",
                    "o5",
                    "o6",
                    "o7",
                    "o8",
                    "o9",
                    "o10",
                    "o11",
                    "o12",
                    "o13",
                    "o14",
                    "o15",
                    "o16",
                    "o17",
                    "o18",
                    "o19",
                    "o20",
                    "o21",
                    "o22",
                    "o23",
                    "o24",
                    "o25",
                    "o26",
                    "o27",
                    "o28",
                    "o29",
                    "o30",
                    "o31",
                    "o32",
                    "o33",
                    "o34",
                    "o35",
                    "o36",
                    "o37",
                    "o38",
                    "o39",
                    "o40",
                    "o41",
                    "o42",
                    "o43",
                    "o44",
                    "o45",
                    "o46",
                    "o47",
                    "o48",
                    "o49",
                    "o50"
                ],
                "usage_min": 1,
                "usage_max": 2,
                "usage_target": null,
                "delivered": 2
            },
            "order": {
                "id": "o3",
                "distance": 139
            }
        },
        {
            "carrier": {
                "id": "c26",
                "fixed_cost": 259.05,
                "cost_per_mile": 0.45646,
                "can_deliver": [
                    "o1",
                    "o2",
                    "o3",
                    "o4",
                    "o5",
                    "o6",
                    "o7",
                    "o8",
                    "o9",
                    "o10",
                    "o11",
                    "o12",
                    "o13",
                    "o14",
                    "o15",
                    "o16",
                    "o17",
                    "o18",
                    "o19",
                    "o20",
                    "o21",
                    "o22",
                    "o23",
                    "o24",
                    "o25",
                    "o26",
                    "o27",
                    "o28",
                    "o29",
                    "o30",
                    "o31",
                    "o32",
                    "o33",
                    "o34",
                    "o35",
                    "o36",
                    "o37",
                    "o38",
                    "o39",
                    "o40",
                    "o41",
                    "o42",
                    "o43",
                    "o44",
                    "o45",
                    "o46",
                    "o47",
                    "o48",
                    "o49",
                    "o50"
                ],
                "usage_min": 1,
                "usage_max": 2,
                "usage_target": null,
                "delivered": 2
            },
            "order": {
                "id": "o10",
                "distance": 125
            }
        },
        {
            "carrier": {
                "id": "c15",
                "fixed_cost": 261.94,
                "cost_per_mile": 0.47712,
                "can_deliver": [
                    "o1",
                    "o2",
                    "o3",
                    "o4",
                    "o5",
                    "o6",
                    "o7",
                    "o8",
                    "o9",
                    "o10",
                    "o11",
                    "o12",
                    "o13",
                    "o14",
                    "o15",
                    "o16",
                    "o17",
                    "o18",
                    "o19",
                    "o20",
                    "o21",
                    "o22",
                    "o23",
                    "o24",
                    "o25",
                    "o26",
                    "o27",
                    "o28",
                    "o29",
                    "o30",
                    "o31",
                    "o32",
                    "o33",
                    "o34",
                    "o35",
                    "o36",
                    "o37",
                    "o38",
                    "o39",
                    "o40",
                    "o41",
                    "o42",
                    "o43",
                    "o44",
                    "o45",
                    "o46",
                    "o47",
                    "o48",
                    "o49",
                    "o50"
                ],
                "usage_min": 1,
                "usage_max": 2,
                "usage_target": null,
                "delivered": 2
            },
            "order": {
                "id": "o37",
                "distance": 71
            }
        },
        {
            "carrier": {
                "id": "c15",
                "fixed_cost": 261.94,
                "cost_per_mile": 0.47712,
                "can_deliver": [
                    "o1",
                    "o2",
                    "o3",
                    "o4",
                    "o5",
                    "o6",
                    "o7",
                    "o8",
                    "o9",
                    "o10",
                    "o11",
                    "o12",
                    "o13",
                    "o14",
                    "o15",
                    "o16",
                    "o17",
                    "o18",
                    "o19",
                    "o20",
                    "o21",
                    "o22",
                    "o23",
                    "o24",
                    "o25",
                    "o26",
                    "o27",
                    "o28",
                    "o29",
                    "o30",
                    "o31",
                    "o32",
                    "o33",
                    "o34",
                    "o35",
                    "o36",
                    "o37",
                    "o38",
                    "o39",
                    "o40",
                    "o41",
                    "o42",
                    "o43",
                    "o44",
                    "o45",
                    "o46",
                    "o47",
                    "o48",
                    "o49",
                    "o50"
                ],
                "usage_min": 1,
                "usage_max": 2,
                "usage_target": null,
                "delivered": 2
            },
            "order": {
                "id": "o38",
                "distance": 34
            }
        },
        {
            "carrier": {
                "id": "c28",
                "fixed_cost": 271.95,
                "cost_per_mile": 0.40306,
                "can_deliver": [
                    "o1",
                    "o2",
                    "o3",
                    "o4",
                    "o5",
                    "o6",
                    "o7",
                    "o8",
                    "o9",
                    "o10",
                    "o11",
                    "o12",
                    "o13",
                    "o14",
                    "o15",
                    "o16",
                    "o17",
                    "o18",
                    "o19",
                    "o20",
                    "o21",
                    "o22",
                    "o23",
                    "o24",
                    "o25",
                    "o26",
                    "o27",
                    "o28",
                    "o29",
                    "o30",
                    "o31",
                    "o32",
                    "o33",
                    "o34",
                    "o35",
                    "o36",
                    "o37",
                    "o38",
                    "o39",
                    "o40",
                    "o41",
                    "o42",
                    "o43",
                    "o44",
                    "o45",
                    "o46",
                    "o47",
                    "o48",
                    "o49",
                    "o50"
                ],
                "usage_min": 1,
                "usage_max": 2,
                "usage_target": null,
                "delivered": 2
            },
            "order": {
                "id": "o15",
                "distance": 31
            }
        },
        {
            "carrier": {
                "id": "c28",
                "fixed_cost": 271.95,
                "cost_per_mile": 0.40306,
                "can_deliver": [
                    "o1",
                    "o2",
                    "o3",
                    "o4",
                    "o5",
                    "o6",
                    "o7",
                    "o8",
                    "o9",
                    "o10",
                    "o11",
                    "o12",
                    "o13",
                    "o14",
                    "o15",
                    "o16",
                    "o17",
                    "o18",
                    "o19",
                    "o20",
                    "o21",
                    "o22",
                    "o23",
                    "o24",
                    "o25",
                    "o26",
                    "o27",
                    "o28",
                    "o29",
                    "o30",
                    "o31",
                    "o32",
                    "o33",
                    "o34",
                    "o35",
                    "o36",
                    "o37",
                    "o38",
                    "o39",
                    "o40",
                    "o41",
                    "o42",
                    "o43",
                    "o44",
                    "o45",
                    "o46",
                    "o47",
                    "o48",
                    "o49",
                    "o50"
                ],
                "usage_min": 1,
                "usage_max": 2,
                "usage_target": null,
                "delivered": 2
            },
            "order": {
                "id": "o21",
                "distance": 29
            }
        }
    ],
    "unsolved_orders": []
}