{
    "orders": [
        {
            "id": "o1",
            "distance": 218
        },
        {
            "id": "o2",
            "distance": 457
        },
        {
            "id": "o3",
            "distance": 139
        },
        {
            "id": "o4",
            "distance": 910
        },
        {
            "id": "o5",
            "distance": 199
        },
        {
            "id": "o6",
            "distance": 321
        },
        {
            "id": "o7",
            "distance": 313
        },
        {
            "id": "o8",
            "distance": 305
        },
        {
            "id": "o9",
            "distance": 236
        },
        {
            "id": "o10",
            "distance": 125
        },
        {
            "id": "o11",
            "distance": 790
        },
        {
            "id": "o12",
            "distance": 655
        },
        {
            "id": "o13",
            "distance": 192
        },
        {
            "id": "o14",
            "distance": 595
        },
        {
            "id": "o15",
            "distance": 31
        },
        {
            "id": "o16",
            "distance": 615
        },
        {
            "id": "o17",
            "distance": 474
        },
        {
            "id": "o18",
            "distance": 510
        },
        {
            "id": "o19",
            "distance": 394
        },
        {
            "id": "o20",
            "distance": 174
        },
        {
            "id": "o21",
            "distance": 29
        },
        {
            "id": "o22",
            "distance": 983
        },
        {
            "id": "o23",
            "distance": 213
        },
        {
            "id": "o24",
            "distance": 688
        },
        {
            "id": "o25",
            "distance": 872
        },
        {
            "id": "o26",
            "distance": 213
        },
        {
            "id": "o27",
            "distance": 540
        },
        {
            "id": "o28",
            "distance": 954
        },
        {
            "id": "o29",
            "distance": 707
        },
        {
            "id": "o30",
            "distance": 625
        },
        {
            "id": "o31",
            "distance": 337
        },
        {
            "id": "o32",
            "distance": 341
        },
        {
            "id": "o33",
            "distance": 258
        },
        {
            "id": "o34",
            "distance": 386
        },
        {
            "id": "o35",
            "distance": 309
        },
        {
            "id": "o36",
            "distance": 921
        },
        {
            "id": "o37",
            "distance": 71
        },
        {
            "id": "o38",
            "distance": 34
        },
        {
            "id": "o39",
            "distance": 807
        },
        {
            "id": "o40",
            "distance": 822
        },
        {
            "id": "o41",
            "distance": 967
        },
        {
            "id": "o42",
            "distance": 365
        },
        {
            "id": "o43",
            "distance": 727
        },
        {
            "id": "o44",
            "distance": 798
        },
        {
            "id": "o45",
            "distance": 933
        },
        {
            "id": "o46",
            "distance": 877
        },
        {
            "id": "o47",
            "distance": 716
        },
        {
            "id": "o48",
            "distance": 697
        },
        {
            "id": "o49",
            "distance": 215
        },
        {
            "id": "o50",
            "distance": 308
        },
        {
            "id": "o51",
            "distance": 839
        },
        {
            "id": "o52",
            "distance": 435
        },
        {
            "id": "o53",
            "distance": 934
        },
        {
            "id": "o54",
            "distance": 63
        },
        {
            "id": "o55",
            "distance": 672
        },
        {
            "id": "o56",
            "distance": 138
        },
        {
            "id": "o57",
            "distance": 374
        },
        {
            "id": "o58",
            "distance": 297
        },
        {
            "id": "o59",
            "distance": 517
        },
        {
            "id": "o60",
            "distance": 68
        },
        {
            "id": "o61",
            "distance": 300
        },
        {
            "id": "o62",
            "distance": 629
        },
        {
            "id": "o63",
            "distance": 60
        },
        {
            "id": "o64",
            "distance": 815
        },
        {
            "id": "o65",
            "distance": 725
        },
        {
            "id": "o66",
            "distance": 684
        },
        {
            "id": "o67",
            "distance": 54
        },
        {
            "id": "o68",
            "distance": 84
        },
        {
            "id": "o69",
            "distance": 854
        },
        {
            "id": "o70",
            "distance": 49
        }
    ],
    "carriers": [
        {
            "id": "c1",
            "fixed_cost": 241.89,
            "cost_per_mile": 0.47032,
            "can_deliver": [
                "o1",
                "o2",
                "o3",
                "o4",
                "o5",
                "o6",
                "o7",
                "o8",
                "o9",
                "o10",
                "o11",
                "o12",
                "o13",
                "o14",
                "o15",
                "o16",
                "o17",
                "o18",
                "o19",
                "o20",
                "o21",
                "o22",
                "o23",
                "o24",
                "o25",
                "o26",
                "o27",
                "o28",
                "o29",
                "o30",
                "o31",
                "o32",
                "o33",
                "o34",
                "o35",
                "o36",
                "o37",
                "o38",
                "o39",
                "o40",
                "o41",
                "o42",
                "o43",
                "o44",
                "o45",
                "o46",
                "o47",
                "o48",
                "o49",
                "o50",
                "o51",
                "o52",
                "o53",
                "o54",
                "o55",
                "o56",
                "o57",
                "o58",
                "o59",
                "o60",
                "o61",
                "o62",
                "o63",
                "o64",
                "o65",
                "o66",
                "o67",
                "o68",
                "o69",
                "o70"
            ],
            "usage_min": null,
            "usage_max": 6,
            "usage_target": null
        },
        {
            "id": "c2",
            "fixed_cost": 275.81,
            "cost_per_mile": 0.41604,
            "can_deliver": [
                "o1",
                "o2",
                "o3",
                "o4",
                "o5",
                "o6",
                "o7",
                "o8",
                "o9",
                "o10",
                "o11",
                "o12",
                "o13",
                "o14",
                "o15",
                "o16",
                "o17",
                "o18",
                "o19",
                "o20",
                "o21",
                "o22",
                "o23",
                "o24",
                "o25",
                "o26",
                "o27",
                "o28",
                "o29",
                "o30",
                "o31",
                "o32",
                "o33",
                "o34",
                "o35",
                "o36",
                "o37",
                "o38",
                "o39",
                "o40",
                "o41",
                "o42",
                "o43",
                "o44",
                "o45",
                "o46",
                "o47",
                "o48",
                "o49",
                "o50",
                "o51",
                "o52",
                "o53",
                "o54",
                "o55",
                "o56",
                "o57",
                "o58",
                "o59",
                "o60",
                "o61",
                "o62",
                "o63",
                "o64",
                "o65",
                "o66",
                "o67",
                "o68",
                "o69",
                "o70"
            ],
            "usage_min": null,
            "usage_max": 6,
            "usage_target": null
        },
        {
            "id": "c3",
            "fixed_cost": 253.74,
            "cost_per_mile": 0.42756,
            "can_deliver": [
                "o1",
                "o2",
                "o3",
                "o4",
                "o5",
                "o6",
                "o7",
                "o8",
                "o9",
                "o10",
                "o11",
                "o12",
                "o13",
                "o14",
                "o15",
                "o16",
                "o17",
                "o18",
                "o19",
                "o20",
                "o21",
                "o22",
                "o23",
                "o24",
                "o25",
                "o26",
                "o27",
                "o28",
                "o29",
                "o30",
                "o31",
                "o32",
                "o33",
                "o34",
                "o35",
                "o36",
                "o37",
                "o38",
                "o39",
                "o40",
                "o41",
                "o42",
                "o43",
                "o44",
                "o45",
                "o46",
                "o47",
                "o48",
                "o49",
                "o50",
                "o51",
                "o52",
                "o53",
                "o54",
                "o55",
                "o56",
                "o57",
                "o58",
                "o59",
                "o60",
                "o61",
                "o62",
                "o63",
                "o64",
                "o65",
                "o66",
                "o67",
                "o68",
                "o69",
                "o70"
            ],
            "usage_min": null,
            "usage_max": 6,
            "usage_target": null
        },
        {
            "id": "c4",
            "fixed_cost": 224.9,
            "cost_per_mile": 0.34471999999999997,
            "can_deliver": [
                "o1",
                "o2",
                "o3",
                "o4",
                "o5",
                "o6",
                "o7",
                "o8",
                "o9",
                "o10",
                "o11",
                "o12",
                "o13",
                "o14",
                "o15",
                "o16",
                "o17",
                "o18",
                "o19",
                "o20",
                "o21",
                "o22",
                "o23",
                "o24",
                "o25",
                "o26",
                "o27",
                "o28",
                "o29",
                "o30",
                "o31",
                "o32",
                "o33",
                "o34",
                "o35",
                "o36",
                "o37",
                "o38",
                "o39",
                "o40",
                "o41",
                "o42",
                "o43",
                "o44",
                "o45",
                "o46",
                "o47",
                "o48",
                "o49",
                "o50",
                "o51",
                "o52",
                "o53",
                "o54",
                "o55",
                "o56",
                "o57",
                "o58",
                "o59",
                "o60",
                "o61",
                "o62",
                "o63",
                "o64",
                "o65",
                "o66",
                "o67",
                "o68",
                "o69",
                "o70"
            ],
            "usage_min": null,
            "usage_max": 6,
            "usage_target": null
        },
        {
            "id": "c5",
            "fixed_cost": 259.01,
            "cost_per_mile": 0.436,
            "can_deliver": [
                "o1",
                "o2",
                "o3",
                "o4",
                "o5",
                "o6",
                "o7",
                "o8",
                "o9",
                "o10",
                "o11",
                "o12",
                "o13",
                "o14",
                "o15",
                "o16",
                "o17",
                "o18",
                "o19",
                "o20",
                "o21",
                "o22",
                "o23",
                "o24",
                "o25",
                "o26",
                "o27",
                "o28",
                "o29",
                "o30",
                "o31",
                "o32",
                "o33",
                "o34",
                "o35",
                "o36",
                "o37",
                "o38",
                "o39",
                "o40",
                "o41",
                "o42",
                "o43",
                "o44",
                "o45",
                "o46",
                "o47",
                "o48",
                "o49",
                "o50",
                "o51",
                "o52",
                "o53",
                "o54",
                "o55",
                "o56",
                "o57",
                "o58",
                "o59",
                "o60",
                "o61",
                "o62",
                "o63",
                "o64",
                "o65",
                "o66",
                "o67",
                "o68",
                "o69",
                "o70"
            ],
            "usage_min": null,
            "usage_max": 6,
            "usage_target": null
        },
        {
            "id": "c6",
            "fixed_cost": 208.85,
            "cost_per_mile": 0.49732,
            "can_deliver": [
                "o1",
                "o2",
                "o3",
                "o4",
                "o5",
                "o6",
                "o7",
                "o8",
                "o9",
                "o10",
                "o11",
                "o12",
                "o13",
                "o14",
                "o15",
                "o16",
                "o17",
                "o18",
                "o19",
                "o20",
                "o21",
                "o22",
                "o23",
                "o24",
                "o25",
                "o26",
                "o27",
                "o28",
                "o29",
                "o30",
                "o31",
                "o32",
                "o33",
                "o34",
                "o35",
                "o36",
                "o37",
                "o38",
                "o39",
                "o40",
                "o41",
                "o42",
                "o43",
                "o44",
                "o45",
                "o46",
                "o47",
                "o48",
                "o49",
                "o50",
                "o51",
                "o52",
                "o53",
                "o54",
                "o55",
                "o56",
                "o57",
                "o58",
                "o59",
                "o60",
                "o61",
                "o62",
                "o63",
                "o64",
                "o65",
                "o66",
                "o67",
                "o68",
                "o69",
                "o70"
            ],
            "usage_min": null,
            "usage_max": 6,
            "usage_target": null
        },
        {
            "id": "c7",
            "fixed_cost": 235.44,
            "cost_per_mile": 0.38339999999999996,
            "can_deliver": [
                "o1",
                "o2",
                "o3",
                "o4",
                "o5",
                "o6",
                "o7",
                "o8",
                "o9",
                "o10",
                "o11",
                "o12",
                "o13",
                "o14",
                "o15",
                "o16",
                "o17",
                "o18",
                "o19",
                "o20",
                "o21",
                "o22",
                "o23",
                "o24",
                "o25",
                "o26",
                "o27",
                "o28",
                "o29",
                "o30",
                "o31",
                "o32",
                "o33",
                "o34",
                "o35",
                "o36",
                "o37",
                "o38",
                "o39",
                "o40",
                "o41",
                "o42",
                "o43",
                "o44",
                "o45",
                "o46",
                "o47",
                "o48",
                "o49",
                "o50",
                "o51",
                "o52",
                "o53",
                "o54",
                "o55",
                "o56",
                "o57",
                "o58",
                "o59",
                "o60",
                "o61",
                "o62",
                "o63",
                "o64",
                "o65",
                "o66",
                "o67",
                "o68",
                "o69",
                "o70"
            ],
            "usage_min": null,
            "usage_max": 6,
            "usage_target": null
        },
        {
            "id": "c8",
            "fixed_cost": 284.53,
            "cost_per_mile": 0.33984,
            "can_deliver": [
                "o1",
                "o2",
                "o3",
                "o4",
                "o5",
                "o6",
                "o7",
                "o8",
                "o9",
                "o10",
                "o11",
                "o12",
                "o13",
                "o14",
                "o15",
                "o16",
                "o17",
                "o18",
                "o19",
                "o20",
                "o21",
                "o22",
                "o23",
                "o24",
                "o25",
                "o26",
                "o27",
                "o28",
                "o29",
                "o30",
                "o31",
                "o32",
                "o33",
                "o34",
                "o35",
                "o36",
                "o37",
                "o38",
                "o39",
                "o40",
                "o41",
                "o42",
                "o43",
                "o44",
                "o45",
                "o46",
                "o47",
                "o48",
                "o49",
                "o50",
                "o51",
                "o52",
                "o53",
                "o54",
                "o55",
                "o56",
                "o57",
                "o58",
                "o59",
                "o60",
                "o61",
                "o62",
                "o63",
                "o64",
                "o65",
                "o66",
                "o67",
                "o68",
                "o69",
                "o70"
            ],
            "usage_min": null,
            "usage_max": 6,
            "usage_target": null
        },
        {
            "id": "c9",
            "fixed_cost": 214.81,
            "cost_per_mile": 0.41916,
            "can_deliver": [
                "o1",
                "o2",
                "o3",
                "o4",
                "o5",
                "o6",
                "o7",
                "o8",
                "o9",
                "o10",
                "o11",
                "o12",
                "o13",
                "o14",
                "o15",
                "o16",
                "o17",
                "o18",
                "o19",
                "o20",
                "o21",
                "o22",
                "o23",
                "o24",
                "o25",
                "o26",
                "o27",
                "o28",
                "o29",
                "o30",
                "o31",
                "o32",
                "o33",
                "o34",
                "o35",
                "o36",
                "o37",
                "o38",
                "o39",
                "o40",
                "o41",
                "o42",
                "o43",
                "o44",
                "o45",
                "o46",
                "o47",
                "o48",
                "o49",
                "o50",
                "o51",
                "o52",
                "o53",
                "o54",
                "o55",
                "o56",
                "o57",
                "o58",
                "o59",
                "o60",
                "o61",
                "o62",
                "o63",
                "o64",
                "o65",
                "o66",
                "o67",
                "o68",
                "o69",
                "o70"
            ],
            "usage_min": null,
            "usage_max": 6,
            "usage_target": null
        },
        {
            "id": "c10",
            "fixed_cost": 255.44,
            "cost_per_mile": 0.36019999999999996,
            "can_deliver": [
                "o1",
                "o2",
                "o3",
                "o4",
                "o5",
                "o6",
                "o7",
                "o8",
                "o9",
                "o10",
                "o11",
                "o12",
                "o13",
                "o14",
                "o15",
                "o16",
                "o17",
                "o18",
                "o19",
                "o20",
                "o21",
                "o22",
                "o23",
                "o24",
                "o25",
                "o26",
                "o27",
                "o28",
                "o29",
                "o30",
                "o31",
                "o32",
                "o33",
                "o34",
                "o35",
                "o36",
                "o37",
                "o38",
                "o39",
                "o40",
                "o41",
                "o42",
                "o43",
                "o44",
                "o45",
                "o46",
                "o47",
                "o48",
                "o49",
                "o50",
                "o51",
                "o52",
                "o53",
                "o54",
                "o55",
                "o56",
                "o57",
                "o58",
                "o59",
                "o60",
                "o61",
                "o62",
                "o63",
                "o64",
                "o65",
                "o66",
                "o67",
                "o68",
                "o69",
                "o70"
            ],
            "usage_min": null,
            "usage_max": 6,
            "usage_target": null
        },
        {
            "id": "c11",
            "fixed_cost": 227.41,
            "cost_per_mile": 0.46868,
            "can_deliver": [
                "o1",
                "o2",
                "o3",
                "o4",
                "o5",
                "o6",
                "o7",
                "o8",
                "o9",
                "o10",
                "o11",
                "o12",
                "o13",
                "o14",
                "o15",
                "o16",
                "o17",
                "o18",
                "o19",
                "o20",
                "o21",
                "o22",
                "o23",
                "o24",
                "o25",
                "o26",
                "o27",
                "o28",
                "o29",
                "o30",
                "o31",
                "o32",
                "o33",
                "o34",
                "o35",
                "o36",
                "o37",
                "o38",
                "o39",
                "o40",
                "o41",
                "o42",
                "o43",
                "o44",
                "o45",
                "o46",
                "o47",
                "o48",
                "o49",
                "o50",
                "o51",
                "o52",
                "o53",
                "o54",
                "o55",
                "o56",
                "o57",
                "o58",
                "o59",
                "o60",
                "o61",
                "o62",
                "o63",
                "o64",
                "o65",
                "o66",
                "o67",
                "o68",
                "o69",
                "o70"
            ],
            "usage_min": null,
            "usage_max": 6,
            "usage_target": null
        },
        {
            "id": "c12",
            "fixed_cost": 255.4,
            "cost_per_mile": 0.32608,
            "can_deliver": [
                "o1",
                "o2",
                "o3",
                "o4",
                "o5",
                "o6",
                "o7",
                "o8",
                "o9",
                "o10",
                "o11",
                "o12",
                "o13",
                "o14",
                "o15",
                "o16",
                "o17",
                "o18",
                "o19",
                "o20",
                "o21",
                "o22",
                "o23",
                "o24",
                "o25",
                "o26",
                "o27",
                "o28",
                "o29",
                "o30",
                "o31",
                "o32",
                "o33",
                "o34",
                "o35",
                "o36",
                "o37",
                "o38",
                "o39",
                "o40",
                "o41",
                "o42",
                "o43",
                "o44",
                "o45",
                "o46",
                "o47",
                "o48",
                "o49",
                "o50",
                "o51",
                "o52",
                "o53",
                "o54",
                "o55",
                "o56",
                "o57",
                "o58",
                "o59",
                "o60",
                "o61",
                "o62",
                "o63",
                "o64",
                "o65",
                "o66",
                "o67",
                "o68",
                "o69",
                "o70"
            ],
            "usage_min": null,
            "usage_max": 6,
            "usage_target": null
        },
        {
            "id": "c13",
            "fixed_cost": 227.46,
            "cost_per_mile": 0.30419999999999997,
            "can_deliver": [
                "o1",
                "o2",
                "o3",
                "o4",
                "o5",
                "o6",
                "o7",
                "o8",
                "o9",
                "o10",
                "o11",
                "o12",
                "o13",
                "o14",
                "o15",
                "o16",
                "o17",
                "o18",
                "o19",
                "o20",
                "o21",
                "o22",
                "o23",
                "o24",
                "o25",
                "o26",
                "o27",
                "o28",
                "o29",
                "o30",
                "o31",
                "o32",
                "o33",
                "o34",
                "o35",
                "o36",
                "o37",
                "o38",
                "o39",
                "o40",
                "o41",
                "o42",
                "o43",
                "o44",
                "o45",
                "o46",
                "o47",
                "o48",
                "o49",
                "o50",
                "o51",
                "o52",
                "o53",
                "o54",
                "o55",
                "o56",
                "o57",
                "o58",
                "o59",
                "o60",
                "o61",
                "o62",
                "o63",
                "o64",
                "o65",
                "o66",
                "o67",
                "o68",
                "o69",
                "o70"
            ],
            "usage_min": null,
            "usage_max": 6,
            "usage_target": null
        },
        {
            "id": "c14",
            "fixed_cost": 218.79,
            "cost_per_mile": 0.47386,
            "can_deliver": [
                "o1",
                "o2",
                "o3",
                "o4",
                "o5",
                "o6",
                "o7",
                "o8",
                "o9",
                "o10",
                "o11",
                "o12",
                "o13",
                "o14",
                "o15",
                "o16",
                "o17",
                "o18",
                "o19",
                "o20",
                "o21",
                "o22",
                "o23",
                "o24",
                "o25",
                "o26",
                "o27",
                "o28",
                "o29",
                "o30",
                "o31",
                "o32",
                "o33",
                "o34",
                "o35",
                "o36",
                "o37",
                "o38",
                "o39",
                "o40",
                "o41",
                "o42",
                "o43",
                "o44",
                "o45",
                "o46",
                "o47",
                "o48",
                "o49",
                "o50",
                "o51",
                "o52",
                "o53",
                "o54",
                "o55",
                "o56",
                "o57",
                "o58",
                "o59",
                "o60",
                "o61",
                "o62",
                "o63",
                "o64",
                "o65",
                "o66",
                "o67",
                "o68",
                "o69",
                "o70"
            ],
            "usage_min": null,
            "usage_max": 6,
            "usage_target": null
        },
        {
            "id": "c15",
            "fixed_cost": 261.94,
            "cost_per_mile": 0.47712,
            "can_deliver": [
                "o1",
                "o2",
                "o3",
                "o4",
                "o5",
                "o6",
                "o7",
                "o8",
                "o9",
                "o10",
                "o11",
                "o12",
                "o13",
                "o14",
                "o15",
                "o16",
                "o17",
                "o18",
                "o19",
                "o20",
                "o21",
                "o22",
                "o23",
                "o24",
                "o25",
                "o26",
                "o27",
                "o28",
                "o29",
                "o30",
                "o31",
                "o32",
                "o33",
                "o34",
                "o35",
                "o36",
                "o37",
                "o38",
                "o39",
                "o40",
                "o41",
                "o42",
                "o43",
                "o44",
                "o45",
                "o46",
                "o47",
                "o48",
                "o49",
                "o50",
                "o51",
                "o52",
                "o53",
                "o54",
                "o55",
                "o56",
                "o57",
                "o58",
                "o59",
                "o60",
                "o61",
                "o62",
                "o63",
                "o64",
                "o65",
                "o66",
                "o67",
                "o68",
                "o69",
                "o70"
            ],
            "usage_min": null,
            "usage_max": 6,
            "usage_target": null
        },
        {
            "id": "c16",
            "fixed_cost": 231.58,
            "cost_per_mile": 0.48434,
            "can_deliver": [
                "o1",
                "o2",
                "o3",
                "o4",
                "o5",
                "o6",
                "o7",
                "o8",
                "o9",
                "o10",
                "o11",
                "o12",
                "o13",
                "o14",
                "o15",
                "o16",
                "o17",
                "o18",
                "o19",
                "o20",
                "o21",
                "o22",
                "o23",
                "o24",
                "o25",
                "o26",
                "o27",
                "o28",
                "o29",
                "o30",
                "o31",
                "o32",
                "o33",
                "o34",
                "o35",
                "o36",
                "o37",
                "o38",
                "o39",
                "o40",
                "o41",
                "o42",
                "o43",
                "o44",
                "o45",
                "o46",
                "o47",
                "o48",
                "o49",
                "o50",
                "o51",
                "o52",
                "o53",
                "o54",
                "o55",
                "o56",
                "o57",
                "o58",
                "o59",
                "o60",
                "o61",
                "o62",
                "o63",
                "o64",
                "o65",
                "o66",
                "o67",
                "o68",
                "o69",
                "o70"
            ],
            "usage_min": null,
            "usage_max": 6,
            "usage_target": null
        },
        {
            "id": "c17",
            "fixed_cost": 207.72,
            "cost_per_mile": 0.43620000000000003,
            "can_deliver": [
                "o1",
                "o2",
                "o3",
                "o4",
                "o5",
                "o6",
                "o7",
                "o8",
                "o9",
                "o10",
                "o11",
                "o12",
                "o13",
                "o14",
                "o15",
                "o16",
                "o17",
                "o18",
                "o19",
                "o20",
                "o21",
                "o22",
                "o23",
                "o24",
                "o25",
                "o26",
                "o27",
                "o28",
                "o29",
                "o30",
                "o31",
                "o32",
                "o33",
                "o34",
                "o35",
                "o36",
                "o37",
                "o38",
                "o39",
                "o40",
                "o41",
                "o42",
                "o43",
                "o44",
                "o45",
                "o46",
                "o47",
                "o48",
                "o49",
                "o50",
                "o51",
                "o52",
                "o53",
                "o54",
                "o55",
                "o56",
                "o57",
                "o58",
                "o59",
                "o60",
                "o61",
                "o62",
                "o63",
                "o64",
                "o65",
                "o66",
                "o67",
                "o68",
                "o69",
                "o70"
            ],
            "usage_min": null,
            "usage_max": 6,
            "usage_target": null
        },
        {
            "id": "c18",
            "fixed_cost": 214.91,
            "cost_per_mile": 0.31378,
            "can_deliver": [
                "o1",
                "o2",
                "o3",
                "o4",
                "o5",
                "o6",
                "o7",
                "o8",
                "o9",
                "o10",
                "o11",
                "o12",
                "o13",
                "o14",
                "o15",
                "o16",
                "o17",
                "o18",
                "o19",
                "o20",
                "o21",
                "o22",
                "o23",
                "o24",
                "o25",
                "o26",
                "o27",
                "o28",
                "o29",
                "o30",
                "o31",
                "o32",
                "o33",
                "o34",
                "o35",
                "o36",
                "o37",
                "o38",
                "o39",
                "o40",
                "o41",
                "o42",
                "o43",
                "o44",
                "o45",
                "o46",
                "o47",
                "o48",
                "o49",
                "o50",
                "o51",
                "o52",
                "o53",
                "o54",
                "o55",
                "o56",
                "o57",
                "o58",
                "o59",
                "o60",
                "o61",
                "o62",
                "o63",
                "o64",
                "o65",
                "o66",
                "o67",
                "o68",
                "o69",
                "o70"
            ],
            "usage_min": null,
            "usage_max": 6,
            "usage_target": null
        },
        {
            "id": "c19",
            "fixed_cost": 248.49,
            "cost_per_mile": 0.4938,
            "can_deliver": [
                "o1",
                "o2",
                "o3",
                "o4",
                "o5",
                "o6",
                "o7",
                "o8",
                "o9",
                "o10",
                "o11",
                "o12",
                "o13",
                "o14",
                "o15",
                "o16",
                "o17",
                "o18",
                "o19",
                "o20",
                "o21",
                "o22",
                "o23",
                "o24",
                "o25",
                "o26",
                "o27",
                "o28",
                "o29",
                "o30",
                "o31",
                "o32",
                "o33",
                "o34",
                "o35",
                "o36",
                "o37",
                "o38",
                "o39",
                "o40",
                "o41",
                "o42",
                "o43",
                "o44",
                "o45",
                "o46",
                "o47",
                "o48",
                "o49",
                "o50",
                "o51",
                "o52",
                "o53",
                "o54",
                "o55",
                "o56",
                "o57",
                "o58",
                "o59",
                "o60",
                "o61",
                "o62",
                "o63",
                "o64",
                "o65",
                "o66",
                "o67",
                "o68",
                "o69",
                "o70"
            ],
            "usage_min": null,
            "usage_max": 6,
            "usage_target": null
        },
        {
            "id": "c20",
            "fixed_cost": 279.03,
            "cost_per_mile": 0.44643999999999995,
            "can_deliver": [
                "o1",
                "o2",
                "o3",
                "o4",
                "o5",
                "o6",
                "o7",
                "o8",
                "o9",
                "o10",
                "o11",
                "o12",
                "o13",
                "o14",
                "o15",
                "o16",
                "o17",
                "o18",
                "o19",
                "o20",
                "o21",
                "o22",
                "o23",
                "o24",
                "o25",
                "o26",
                "o27",
                "o28",
                "o29",
                "o30",
                "o31",
                "o32",
                "o33",
                "o34",
                "o35",
                "o36",
                "o37",
                "o38",
                "o39",
                "o40",
                "o41",
                "o42",
                "o43",
                "o44",
                "o45",
                "o46",
                "o47",
                "o48",
                "o49",
                "o50",
                "o51",
                "o52",
                "o53",
                "o54",
                "o55",
                "o56",
                "o57",
                "o58",
                "o59",
                "o60",
                "o61",
                "o62",
                "o63",
                "o64",
                "o65",
                "o66",
                "o67",
                "o68",
                "o69",
                "o70"
            ],
            "usage_min": null,
            "usage_max": 6,
            "usage_target": null
        },
        {
            "id": "c21",
            "fixed_cost": 277.74,
            "cost_per_mile": 0.41736,
            "can_deliver": [
                "o1",
                "o2",
                "o3",
                "o4",
                "o5",
                "o6",
                "o7",
                "o8",
                "o9",
                "o10",
                "o11",
                "o12",
                "o13",
                "o14",
                "o15",
                "o16",
                "o17",
                "o18",
                "o19",
                "o20",
                "o21",
                "o22",
                "o23",
                "o24",
                "o25",
                "o26",
                "o27",
                "o28",
                "o29",
                "o30",
                "o31",
                "o32",
                "o33",
                "o34",
                "o35",
                "o36",
                "o37",
                "o38",
                "o39",
                "o40",
                "o41",
                "o42",
                "o43",
                "o44",
                "o45",
                "o46",
                "o47",
                "o48",
                "o49",
                "o50",
                "o51",
                "o52",
                "o53",
                "o54",
                "o55",
                "o56",
                "o57",
                "o58",
                "o59",
                "o60",
                "o61",
                "o62",
                "o63",
                "o64",
                "o65",
                "o66",
                "o67",
                "o68",
                "o69",
                "o70"
            ],
            "usage_min": null,
            "usage_max": 6,
            "usage_target": null
        },
        {
            "id": "c22",
            "fixed_cost": 221.93,
            "cost_per_mile": 0.40534,
            "can_deliver": [
                "o1",
                "o2",
                "o3",
                "o4",
                "o5",
                "o6",
                "o7",
                "o8",
                "o9",
                "o10",
                "o11",
                "o12",
                "o13",
                "o14",
                "o15",
                "o16",
                "o17",
                "o18",
                "o19",
                "o20",
                "o21",
                "o22",
                "o23",
                "o24",
                "o25",
                "o26",
                "o27",
                "o28",
                "o29",
                "o30",
                "o31",
                "o32",
                "o33",
                "o34",
                "o35",
                "o36",
                "o37",
                "o38",
                "o39",
                "o40",
                "o41",
                "o42",
                "o43",
                "o44",
                "o45",
                "o46",
                "o47",
                "o48",
                "o49",
                "o50",
                "o51",
                "o52",
                "o53",
                "o54",
                "o55",
                "o56",
                "o57",
                "o58",
                "o59",
                "o60",
                "o61",
                "o62",
                "o63",
                "o64",
                "o65",
                "o66",
                "o67",
                "o68",
                "o69",
                "o70"
            ],
            "usage_min": null,
            "usage_max": 6,
            "usage_target": null
        },
        {
            "id": "c23",
            "fixed_cost": 296.51,
            "cost_per_mile": 0.4732,
            "can_deliver": [
                "o1",
                "o2",
                "o3",
                "o4",
                "o5",
                "o6",
                "o7",
                "o8",
                "o9",
                "o10",
                "o11",
                "o12",
                "o13",
                "o14",
                "o15",
                "o16",
                "o17",
                "o18",
                "o19",
                "o20",
                "o21",
                "o22",
                "o23",
                "o24",
                "o25",
                "o26",
                "o27",
                "o28",
                "o29",
                "o30",
                "o31",
                "o32",
                "o33",
                "o34",
                "o35",
                "o36",
                "o37",
                "o38",
                "o39",
                "o40",
                "o41",
                "o42",
                "o43",
                "o44",
                "o45",
                "o46",
                "o47",
                "o48",
                "o49",
                "o50",
                "o51",
                "o52",
                "o53",
                "o54",
                "o55",
                "o56",
                "o57",
                "o58",
                "o59",
                "o60",
                "o61",
                "o62",
                "o63",
                "o64",
                "o65",
                "o66",
                "o67",
                "o68",
                "o69",
                "o70"
            ],
            "usage_min": null,
            "usage_max": 6,
            "usage_target": null
        },
        {
            "id": "c24",
            "fixed_cost": 253.19,
            "cost_per_mile": 0.44476,
            "can_deliver": [
                "o1",
                "o2",
                "o3",
                "o4",
                "o5",
                "o6",
                "o7",
                "o8",
                "o9",
                "o10",
                "o11",
                "o12",
                "o13",
                "o14",
                "o15",
                "o16",
                "o17",
                "o18",
                "o19",
                "o20",
                "o21",
                "o22",
                "o23",
                "o24",
                "o25",
                "o26",
                "o27",
                "o28",
                "o29",
                "o30",
                "o31",
                "o32",
                "o33",
                "o34",
                "o35",
                "o36",
                "o37",
                "o38",
                "o39",
                "o40",
                "o41",
                "o42",
                "o43",
                "o44",
                "o45",
                "o46",
                "o47",
                "o48",
                "o49",
                "o50",
                "o51",
                "o52",
                "o53",
                "o54",
                "o55",
                "o56",
                "o57",
                "o58",
                "o59",
                "o60",
                "o61",
                "o62",
                "o63",
                "o64",
                "o65",
                "o66",
                "o67",
                "o68",
                "o69",
                "o70"
            ],
            "usage_min": null,
            "usage_max": 6,
            "usage_target": null
        },
        {
            "id": "c25",
            "fixed_cost": 292.14,
            "cost_per_mile": 0.49276,
            "can_deliver": [
                "o1",
                "o2",
                "o3",
                "o4",
                "o5",
                "o6",
                "o7",
                "o8",
                "o9",
                "o10",
                "o11",
                "o12",
                "o13",
                "o14",
                "o15",
                "o16",
                "o17",
                "o18",
                "o19",
                "o20",
                "o21",
                "o22",
                "o23",
                "o24",
                "o25",
                "o26",
                "o27",
                "o28",
                "o29",
                "o30",
                "o31",
                "o32",
                "o33",
                "o34",
                "o35",
                "o36",
                "o37",
                "o38",
                "o39",
                "o40",
                "o41",
                "o42",
                "o43",
                "o44",
                "o45",
                "o46",
                "o47",
                "o48",
                "o49",
                "o50",
                "o51",
                "o52",
                "o53",
                "o54",
                "o55",
                "o56",
                "o57",
                "o58",
                "o59",
                "o60",
                "o61",
                "o62",
                "o63",
                "o64",
                "o65",
                "o66",
                "o67",
                "o68",
                "o69",
                "o70"
            ],
            "usage_min": null,
            "usage_max": 6,
            "usage_target": null
        },
        {
            "id": "c26",
            "fixed_cost": 259.05,
            "cost_per_mile": 0.45646,
            "can_deliver": [
                "o1",
                "o2",
                "o3",
                "o4",
                "o5",
                "o6",
                "o7",
                "o8",
                "o9",
                "o10",
                "o11",
                "o12",
                "o13",
                "o14",
                "o15",
                "o16",
                "o17",
                "o18",
                "o19",
                "o20",
                "o21",
                "o22",
                "o23",
                "o24",
                "o25",
                "o26",
                "o27",
                "o28",
                "o29",
                "o30",
                "o31",
                "o32",
                "o33",
                "o34",
                "o35",
                "o36",
                "o37",
                "o38",
                "o39",
                "o40",
                "o41",
                "o42",
                "o43",
                "o44",
                "o45",
                "o46",
                "o47",
                "o48",
                "o49",
                "o50",
                "o51",
                "o52",
                "o53",
                "o54",
                "o55",
                "o56",
                "o57",
                "o58",
                "o59",
                "o60",
                "o61",
                "o62",
                "o63",
                "o64",
                "o65",
                "o66",
                "o67",
                "o68",
                "o69",
                "o70"
            ],
            "usage_min": null,
            "usage_max": 6,
            "usage_target": null
        },
        {
            "id": "c27",
            "fixed_cost": 294.28999999999996,
            "cost_per_mile": 0.41104,
            "can_deliver": [
                "o1",
                "o2",
                "o3",
                "o4",
                "o5",
                "o6",
                "o7",
                "o8",
                "o9",
                "o10",
                "o11",
                "o12",
                "o13",
                "o14",
                "o15",
                "o16",
                "o17",
                "o18",
                "o19",
                "o20",
                "o21",
                "o22",
                "o23",
                "o24",
                "o25",
                "o26",
                "o27",
                "o28",
                "o29",
                "o30",
                "o31",
                "o32",
                "o33",
                "o34",
                "o35",
                "o36",
                "o37",
                "o38",
                "o39",
                "o40",
                "o41",
                "o42",
                "o43",
                "o44",
                "o45",
                "o46",
                "o47",
                "o48",
                "o49",
                "o50",
                "o51",
                "o52",
                "o53",
                "o54",
                "o55",
                "o56",
                "o57",
                "o58",
                "o59",
                "o60",
                "o61",
                "o62",
                "o63",
                "o64",
                "o65",
                "o66",
                "o67",
                "o68",
                "o69",
                "o70"
            ],
            "usage_min": null,
            "usage_max": 6,
            "usage_target": null
        },
        {
            "id": "c28",
            "fixed_cost": 271.95,
            "cost_per_mile": 0.40306,
            "can_deliver": [
                "o1",
                "o2",
                "o3",
                "o4",
                "o5",
                "o6",
                "o7",
                "o8",
                "o9",
                "o10",
                "o11",
                "o12",
                "o13",
                "o14",
                "o15",
                "o16",
                "o17",
                "o18",
                "o19",
                "o20",
                "o21",
                "o22",
                "o23",
                "o24",
                "o25",
                "o26",
                "o27",
                "o28",
                "o29",
                "o30",
                "o31",
                "o32",
                "o33",
                "o34",
                "o35",
                "o36",
                "o37",
                "o38",
                "o39",
                "o40",
                "o41",
                "o42",
                "o43",
                "o44",
                "o45",
                "o46",
                "o47",
                "o48",
                "o49",
                "o50",
                "o51",
                "o52",
                "o53",
                "o54",
                "o55",
                "o56",
                "o57",
                "o58",
                "o59",
                "o60",
                "o61",
                "o62",
                "o63",
                "o64",
                "o65",
                "o66",
                "o67",
                "o68",
                "o69",
                "o70"
            ],
            "usage_min": null,
            "usage_max": 6,
            "usage_target": null
        },
        {
            "id": "c29",
            "fixed_cost": 279.06,
            "cost_per_mile": 0.49252,
            "can_deliver": [
                "o1",
                "o2",
                "o3",
                "o4",
                "o5",
                "o6",
                "o7",
                "o8",
                "o9",
                "o10",
                "o11",
                "o12",
                "o13",
                "o14",
                "o15",
                "o16",
                "o17",
                "o18",
                "o19",
                "o20",
                "o21",
                "o22",
                "o23",
                "o24",
                "o25",
                "o26",
                "o27",
                "o28",
                "o29",
                "o30",
                "o31",
                "o32",
                "o33",
                "o34",
                "o35",
                "o36",
                "o37",
                "o38",
                "o39",
                "o40",
                "o41",
                "o42",
                "o43",
                "o44",
                "o45",
                "o46",
                "o47",
                "o48",
                "o49",
                "o50",
                "o51",
                "o52",
                "o53",
                "o54",
                "o55",
                "o56",
                "o57",
                "o58",
                "o59",
                "o60",
                "o61",
                "o62",
                "o63",
                "o64",
                "o65",
                "o66",
                "o67",
                "o68",
                "o69",
                "o70"
            ],
            "usage_min": null,
            "usage_max": 6,
            "usage_target": null
        },
        {
            "id": "c30",
            "fixed_cost": 244.17000000000002,
            "cost_per_mile": 0.38508,
            "can_deliver": [
                "o1",
                "o2",
                "o3",
                "o4",
                "o5",
                "o6",
                "o7",
                "o8",
                "o9",
                "o10",
                "o11",
                "o12",
                "o13",
                "o14",
                "o15",
                "o16",
                "o17",
                "o18",
                "o19",
                "o20",
                "o21",
                "o22",
                "o23",
                "o24",
                "o25",
                "o26",
                "o27",
                "o28",
                "o29",
                "o30",
                "o31",
                "o32",
                "o33",
                "o34",
                "o35",
                "o36",
                "o37",
                "o38",
                "o39",
                "o40",
                "o41",
                "o42",
                "o43",
                "o44",
                "o45",
                "o46",
                "o47",
                "o48",
                "o49",
                "o50",
                "o51",
                "o52",
                "o53",
                "o54",
                "o55",
                "o56",
                "o57",
                "o58",
                "o59",
                "o60",
                "o61",
                "o62",
                "o63",
                "o64",
                "o65",
                "o66",
                "o67",
                "o68",
                "o69",
                "o70"
            ],
            "usage_min": null,
            "usage_max": 6,
            "usage_target": null
        },
        {
            "id": "c31",
            "fixed_cost": 257.06,
            "cost_per_mile": 0.37538,
            "can_deliver": [
                "o1",
                "o2",
                "o3",
                "o4",
                "o5",
                "o6",
                "o7",
                "o8",
                "o9",
                "o10",
                "o11",
                "o12",
                "o13",
                "o14",
                "o15",
                "o16",
                "o17",
                "o18",
                "o19",
                "o20",
                "o21",
                "o22",
                "o23",
                "o24",
                "o25",
                "o26",
                "o27",
                "o28",
                "o29",
                "o30",
                "o31",
                "o32",
                "o33",
                "o34",
                "o35",
                "o36",
                "o37",
                "o38",
                "o39",
                "o40",
                "o41",
                "o42",
                "o43",
                "o44",
                "o45",
                "o46",
                "o47",
                "o48",
                "o49",
                "o50",
                "o51",
                "o52",
                "o53",
                "o54",
                "o55",
                "o56",
                "o57",
                "o58",
                "o59",
                "o60",
                "o61",
                "o62",
                "o63",
                "o64",
                "o65",
                "o66",
                "o67",
                "o68",
                "o69",
                "o70"
            ],
            "usage_min": null,
            "usage_max": 6,
            "usage_target": null
        },
        {
            "id": "c32",
            "fixed_cost": 206.82,
            "cost_per_mile": 0.39054,
            "can_deliver": [
                "o1",
                "o2",
                "o3",
                "o4",
                "o5",
                "o6",
                "o7",
                "o8",
                "o9",
                "o10",
                "o11",
                "o12",
                "o13",
                "o14",
                "o15",
                "o16",
                "o17",
                "o18",
                "o19",
                "o20",
                "o21",
                "o22",
                "o23",
                "o24",
                "o25",
                "o26",
                "o27",
                "o28",
                "o29",
                "o30",
                "o31",
                "o32",
                "o33",
                "o34",
                "o35",
                "o36",
                "o37",
                "o38",
                "o39",
                "o40",
                "o41",
                "o42",
                "o43",
                "o44",
                "o45",
                "o46",
                "o47",
                "o48",
                "o49",
                "o50",
                "o51",
                "o52",
                "o53",
                "o54",
                "o55",
                "o56",
                "o57",
                "o58",
                "o59",
                "o60",
                "o61",
                "o62",
                "o63",
                "o64",
                "o65",
                "o66",
                "o67",
                "o68",
                "o69",
                "o70"
            ],
            "usage_min": null,
            "usage_max": 6,
            "usage_target": null
        },
        {
            "id": "c33",
            "fixed_cost": 284.77,
            "cost_per_mile": 0.32182,
            "can_deliver": [
                "o1",
                "o2",
                "o3",
                "o4",
                "o5",
                "o6",
                "o7",
                "o8",
                "o9",
                "o10",
                "o11",
                "o12",
                "o13",
                "o14",
                "o15",
                "o16",
                "o17",
                "o18",
                "o19",
                "o20",
                "o21",
                "o22",
                "o23",
                "o24",
                "o25",
                "o26",
                "o27",
                "o28",
                "o29",
                "o30",
                "o31",
                "o32",
                "o33",
                "o34",
                "o35",
                "o36",
                "o37",
                "o38",
                "o39",
                "o40",
                "o41",
                "o42",
                "o43",
                "o44",
                "o45",
                "o46",
                "o47",
                "o48",
                "o49",
                "o50",
                "o51",
                "o52",
                "o53",
                "o54",
                "o55",
                "o56",
                "o57",
                "o58",
                "o59",
                "o60",
                "o61",
                "o62",
                "o63",
                "o64",
                "o65",
                "o66",
                "o67",
                "o68",
                "o69",
                "o70"
            ],
            "usage_min": null,
            "usage_max": 6,
            "usage_target": null
        },
        {
            "id": "c34",
            "fixed_cost": 278.46,
            "cost_per_mile": 0.4683,
            "can_deliver": [
                "o1",
                "o2",
                "o3",
                "o4",
                "o5",
                "o6",
                "o7",
                "o8",
                "o9",
                "o10",
                "o11",
                "o12",
                "o13",
                "o14",
                "o15",
                "o16",
                "o17",
                "o18",
                "o19",
                "o20",
                "o21",
                "o22",
                "o23",
                "o24",
                "o25",
                "o26",
                "o27",
                "o28",
                "o29",
                "o30",
                "o31",
                "o32",
                "o33",
                "o34",
                "o35",
                "o36",
                "o37",
                "o38",
                "o39",
                "o40",
                "o41",
                "o42",
                "o43",
                "o44",
                "o45",
                "o46",
                "o47",
                "o48",
                "o49",
                "o50",
                "o51",
                "o52",
                "o53",
                "o54",
                "o55",
                "o56",
                "o57",
                "o58",
                "o59",
                "o60",
                "o61",
                "o62",
                "o63",
                "o64",
                "o65",
                "o66",
                "o67",
                "o68",
                "o69",
                "o70"
            ],
            "usage_min": null,
            "usage_max": 6,
            "usage_target": null
        },
        {
            "id": "c35",
            "fixed_cost": 210.87,
            "cost_per_mile": 0.38961999999999997,
            "can_deliver": [
                "o1",
                "o2",
                "o3",
                "o4",
                "o5",
                "o6",
                "o7",
                "o8",
                "o9",
                "o10",
                "o11",
                "o12",
                "o13",
                "o14",
                "o15",
                "o16",
                "o17",
                "o18",
                "o19",
                "o20",
                "o21",
                "o22",
                "o23",
                "o24",
                "o25",
                "o26",
                "o27",
                "o28",
                "o29",
                "o30",
                "o31",
                "o32",
                "o33",
                "o34",
                "o35",
                "o36",
                "o37",
                "o38",
                "o39",
                "o40",
                "o41",
                "o42",
                "o43",
                "o44",
                "o45",
                "o46",
                "o47",
                "o48",
                "o49",
                "o50",
                "o51",
                "o52",
                "o53",
                "o54",
                "o55",
                "o56",
                "o57",
                "o58",
                "o59",
                "o60",
                "o61",
                "o62",
                "o63",
                "o64",
                "o65",
                "o66",
                "o67",
                "o68",
                "o69",
                "o70"
            ],
            "usage_min": null,
            "usage_max": 6,
            "usage_target": null
        }
    ]
}